{
    "general.guildOnly": "Jenom přístupné na serverech.",
    "general.error": "Chyba. Nahlašte tuto chybu na našem serveru podpory (příkaz `support` pro pozvánku)\n```{{error}}```",
    "general.cooldown": "Wau! Trochu otravné - tenhle příkaz je na chvíli pozastaven.",
    "finder.failUser": "Nemohu najít správného uživatele.",
    "finder.failRole": "Nemohu najít správnou roli.",
    "finder.failChannel": "Nemohu najít správný kanál.",
    "finder.failGuild": "Nemohu najít správný server.",
    "finder.headerRole": "Prosím vyberte roli kterou chcete použít",
    "finder.headerUser": "Prosím vyberte uživatele, kterého chcete použít",
    "finder.headerGuild": "[Vyhledávání serveru]",
    "finder.headerChannel": "Prosím vyberte kanál, který chcete použít",
    "finder.headerUserGuild": "[Vyhledávání serverového uživatele]",
    "invite.text": "Jasná věc :ok_hand:\n\nAbych se mohla připojit na váš server, vyberte jeden z odkazů:\n\nModerátorský (doporučen): {{invite}}\nMinimální (nedoporučen): {{invitemin}}",
    "locale.userUpdate": "Vaše jazykové nastavení bylo změněno na `{{locale}}`.",
    "locale.guildUpdate": "Jazykové nastavení serveru bylo změněno na `{{locale}}`.",
    "locale.headerAvail": "[Dostupné jazyky]",
    "locale.fail": "Nemohu aktualizovat jazyk.",
    "modlog.genFail": "Chyba záznamu moderace.",
    "modlog.addFail": "Nemohu přidat polžku záznamu moderace.",
    "modlog.created": "Položka záznamu moderace je přidána.",
    "modlog.updated": "Položka záznamu moderace je aktualizována.",
    "modlog.updateFail": "Nemohu aktualizovat detaily položky záznamu.",
    "modlog.hackAdd": "Vypadá, že `{{input}}` je ID uživatele. Pokračovat [y/n]?",
    "perms.denied": "Chybí vám oprávnění `{{node}}`.",
    "perms.cmdDenied": "Přístup je odepřen. Musíte být buďto vlastník serveru nebo musíte mít oprávnění 'administrátor', abyste upravili oprávnění.",
    "perms.resetall.owner": "Tento příkaz může používat pouze vlastník serveru.",
    "perms.resetall.reset": "Všechna oprávnění resetována.",
    "perms.resetall.error": "Nemohu resetovat všechna oprávnění.",
    "perms.failedUpdate": "Nemohu aktualizovat uzel oprávnění. Kontaktujte podporu pokud tento problém přetrvává.",
    "perms.noRole": "Role není specifikována.",
    "perms.roleUserConflict": "Role a Uživatel nesmí být specifikováni najednou.",
    "perms.invalidOpt": "Pouze `--channel [kanál], --user [uživatel] ,--role [role]` jsou správné možnosti, bez argumentů uživatele a kanálu předpokládají aktuální hodnoty.",
    "prefix.text": "Prefix na tomto serveru je `{{prefix}}`.",
    "prune.missingPerms": "Omlouvám se, nemám oprávnění Discordu \"Spravovat zprávy\".",
    "prune.fetchFail": "Nemohu získat zprávy. Prosím, zkuste to znovu.",
    "prune.filterHelp": "Filtr potřebuje vstup k hledání.",
    "prune.userIDConf": "Vypadá, že `{{input}}` je ID uživatele. Pokračovat [y/n]?",
    "remind.error": "Potřebuji vám něco připomenout.",
    "remind.invalidTime": "Špatný čas. Specifikujte čas delší než 30 sekund.",
    "remind.confirm": "Dobře, připomenout v `{{time}}` [y/n]?",
    "remind.okay": "Dobře, připomenu vám to!",
    "remind.failed": "Omlouvám se, nemohu uložit vaši připomínku :(",
    "remind.pm": "Řekli jste mi, abych vám připomněla toto: ```{{text}}```",
    "words.user": "Uživatel",
    "words.role": "Role",
    "words.roles": "Role",
    "words.channel": "Kanál",
    "words.channels": "Kanály",
    "words.guild": "Server",
    "words.guilds": "Servery",
    "words.version": "Verze",
    "words.website": "Webová stránka",
    "words.author": "Autor",
    "words.library": "Knihovna",
    "words.donate": "Přispět",
    "words.member": "Člen",
    "words.members": "Členové",
    "words.id": "ID",
    "words.region": "Region",
    "words.owner": "Vlastník",
    "words.created": "Vytvořen",
    "words.joined": "Vstoupil",
    "words.icon": "Ikona",
    "words.avatar": "Avatar",
    "words.cancel": "Zrušit",
    "words.nickname": "Přezdívka",
    "words.playing": "Hraje",
    "words.status": "Status",
    "words.error": "Chyba",
    "words.yes": "Ano",
    "words.no": "Ne",
    "words.position": "Pozice",
    "words.color": "Barva",
    "words.hoist": "Je zobrazen(a) samostatně",
    "words.managed": "Spravován(a)",
    "words.mentionable": "Může být zmíněn(a)",
    "words.permissions": "Oprávnění",
    "words.users": "Uživatelé",
    "words.topic": "Popis",
    "words.twitter": "Twitter",
    "words.mention": "Zmínka",
    "words.type": "Typ",
    "words.value": "Hodnota",
    "words.default": "Výchozí",
    "words.description": "Popis",
    "help.ban": "Užití: `ban <uživatel> [--reason <důvod>] [--days <dny>] [--soft] [--hackban]`",
    "help.kick": "Užití: `kick <uživatel> [--reason <důvod>]`",
    "help.roleinfo": "Užití: `roleinfo <role>`",
    "help.locale": "Užití: `locale [set <jazyk> [--guild]]`",
    "ban.missingUser": "Chybí požadovaný parametr user.",
    "ban.softHackban": "Nemohu soft a hackbanovat najednou.",
    "ban.invalidDays": "Uvedli jste nastavení days, ale není platné číslo.",
    "ban.hackbanUserID": "Hackban vyžaduje ID uživatele.",
    "ban.failed": "Omlouvám se, nemohu zabanovat uživatele. Možná mi chybí oprávnění?",
    "ban.softFailed": "Chyba při softbanu. Uživatel byl zabanován, ale nemohu odbanovat. Prosím, odbanujte uživatele manuálně.",
    "botlist.fetchFailed": "Chyba při získávání seznamu botů od {{provider}}.",
    "botlist.headerPage": "[Seznam botů, strana {{page}} z {{total}}]",
    "support.text": "Pro podporu, návrhy nebo chyby s Ayanou, prosím navštivte náš server podpory. {{support}}",
    "kick.failed": "Omlouvám se, nemohu vyhodit uživatele. Možná mi chybí oprávnění?",
    "linkcheck.headerRedirects": "[Přesměrování]",
    "ping.pong": "Peng! {{ms}}",
    "settings.failedUpdate": "Chyba při aktualizování možnosti.",
    "settings.invalidInput": "Očekávané nastavení bylo`{{type}}`, dostala jsem `{{input}}`.",
    "settings.set": "Nastavila jsem **{{setting}}** na `{{value}}`.",
    "settings.notset": "Není nastaveno",
    "settings.groupsHelp": "Tohle je seznam dostupných skupin nastavení.\nPro uživatelská nastavení použijte příkaz `settings user`.\nPro více informací použijte příkaz `settings [jmenoskupiny]`.",
    "settings.unknownGroup": "Neznámá skupina nastavení [**{{input}}**]().",
    "settings.groupHelp": "Nastavení ve skupině [**{{group}}**]()\nPro více informací o nastavení, a pro zobrazení proměnných nastavení, spusťte příkaz `settings {{group}} [jmenonastaveni]`.",
    "settings.unknownSetting": "Neznámé nastavení [**{{setting}}**]() ve skupině [**{{group}}**]().",
    "settings.active": "Povolit/Zakázat",
    "settings.prefix.guild": "Prefix pro tento server.",
    "settings.greeting.text": "Uvítací zpráva.",
    "settings.greeting.channel": "Kanál pro uvítací zprávy.",
    "settings.greeting.dm": "Poslat jako DM místo kanálu?",
    "settings.farewell.text": "Zpráva rozloučení.",
    "settings.farewell.channel": "Kanál pro zprávy rozloučení.",
    "settings.farewell.dm": "Poslat jako DM místo kanálu?",
    "settings.modlog.channel": "Kanál pro zaznamenávání modertorských akcí.",
    "avatar.resolveFailed": "Nemohu získat avatar.",
    "translation.nativeName": "Čeština",
    "translation.englishName": "Czech",
    "channelinfo.pinned": "Připnutých zpráv",
    "channelinfo.type": "Typ kanálu",
    "channelinfo.text": "Textový",
    "channelinfo.voice": "Hlasový",
    "channelinfo.bitrate": "Rychlost přenosu hlasu",
    "channelinfo.connected": "Připojených uživatelů",
    "channelinfo.overwrite": "Přepsání práv",
    "music2.join": ":white_check_mark: Připojila jsem se ke kanálům :speaker: `{{voice}}` a :newspaper: `{{text}}`.",
    "music2.rebound": ":white_check_mark: Pokračuji v přehrávání po backendovém odpojení.",
    "music2.userNoChannel": "Momentálně nejste ve zvukovém kanálu. Prosím, připojte se do hlasového kanálu.",
    "music2.leave": ":no_entry: Odpojeno od kanálů. Pokud jste si užili Ayanu, prosím rozhodněte se nás podpořit na <https://ayana.io/donate>!",
    "music2.nowplaying": ":notes: Teď hraje: `{{title}}` vyžádán uživatelem `{{requester}}`.",
    "music2.enqueued": "Zařadila jsem do fronty: `{{title}}` na pozici **{{position}}**. Spusťte příkaz `music play`, abyste přehráli frontu.",
    "music2.enqueuedPlaylist": "Zařadila jsem do fronty `{{items}}` písní z `{{title}}`. Spusťte příkaz `music play`, abyste přehráli frontu.",
    "music2.alreadyBound": "Momentálně jsem připojena ke kanálům.",
    "music2.notBound": "Nejsem připojena k žádným kanálům.",
    "music2.queuePurged": "Fronta je vyčištěna.",
    "music2.queueItemDeleted": "Odstranila jsem `{{item}}` z fronty.",
    "music2.headerSearch": "[Výsledky vyhledávání]",
    "music2.pickOption": "Vyberte možnost níže pro zařazení do fronty.",
    "music2.emptyQueue": "Nikde nic, jenom kuřata…",
    "music2.headerQueue": "[Fronta hudby]",
    "music2.queueShuffled": ":twisted_rightwards_arrows: Fronta je přeházena.",
    "music2.skipped": ":fast_forward: Přeskočila jsem `{{item}}`.",
    "music2.loopOne": ":repeat_one: Opakuji aktuální píseň.",
    "music2.loopAll": ":repeat: Opakuji celou frontu.",
    "music2.loopOff": "Opakování vypnuto.",
    "music2.autoPaused": ":pause_button: Pozastaveno, kvůli chybějícím posluchačům.",
    "music2.autoResumed": ":arrow_forward: Přehrávání pokračuje.",
    "music2.autoLeave": ":no_entry_sign: Odpojeno z kanálů kvůli neaktivitě. Pokud jste si užili Ayanu, prosím rozhodněte se nás podpořit na <https://ayana.io/donate>!",
    "music2.fullHelp": "```css\n[Pomoc pro Hudbu]\n\nmusic q | queue - ukáže frontu\nmusic q | queue [název písně | URL] - zařadí píseň/seznam videí do fronty.\n        music q [název písně | URL] --next - zařadí píseň/seznam videí hned na další pozici.\n\nmusic qp | queueplay [název písně | URL] - zařadí píseň do fronty a začne ji přehrávat.\nmusic sq | showqueue - ukáže frontu\n        \nmusic d | delete <číslo ve frontě|dotaz> - smaže píseň/písně z fronty.\n\nmusic pg | purge - vyčistí frontu.\nmusic p | play - začne přehrávat frontu.\nmusic s | skip - přeskočí přehrávanou píseň.\nmusic sf | shuffle - náhodně přehází frontu.\nmusic r | repeat <all (všechno ve frontě) |one (aktuálně přehrávaná píseň) | off (vypnout)> - Zapne/vypne opakování.\n\nmusic pv | providers - zobrazí seznam poskytovatelů\n\nmusic j | join - připojí se k vám do hlasového kanálu. *Poznámka: Musíte být v hlasovém kanálu.*\nmusic l | leave - odejde z hlasového kanálu.\n<> = požadovaná informace, []= volitelná informace, | = nebo, () = překlad, nepište <> [] () nebo | ve vašem příkazu.\nProsím přijďte do našeho serveru pro podporu (=support pro pozvánku)```",
    "music2.tooLong": "Kvůli změnám v Hudbě v3, **dočasně** blokujeme písně delší než 3 hodiny.",
    "modlog.requireReason": "Log moderátorských akcí byl zapnut. `--reason` musí být zahrnut v příkazu.",
    "words.variables": "Proměnné",
    "settings.variable.mention": "Zmínit se o uživateli.",
    "settings.variable.username": "Uživatelské jméno člena.",
    "settings.variable.discriminator": "Diskriminátor člena.",
    "settings.variable.userid": "Uživatelské ID člena.",
    "shardinfo.fail": "Nemohu získat informace o shardech z Brány.",
    "shardinfo.currentShard": "Tento shard",
    "words.providers": "Poskytovatelé",
    "setgame.fail": "Nemohu nastavit hru. {{error}}",
    "setgame.streambool": "Odkaz (Adresa URL) na stream musí být specifikován.",
    "setgame.done": "Hra je nastavena!",
    "music.providers.youtube": "Poslouchejte videa z YouTube a seznamy videí, které nejsou soukromé.",
    "music.providers.soundcloud": "Poslouchejte hudbu a seznamy hudby ze SoundCloudu.",
    "music.providers.listenmoe": "Poslouchejte přímý přenos rádia z listen.moe.",
    "music.providers.clyp": "Poslouchejte hudbu z http://clyp.it.",
    "music.providers.twitch": "Poslouchejte přímé přenosy z Twitche.",
    "f.paid": "**{{username}}** zaplatil jeho respekt.",
    "f.paidfor": "**{{username}}** zaplatil svůj respekt pro **{{type}}**.",
    "f.paidfooter": "{{today}} dnes, {{all}} všechny",
    "f.paidstats": "**{{today}}** respektů bylo dneska zaplaceno. Za celé období **{{all}}**.",
    "settings.automod.links": "Zapnout/vypnout filtr odkazů.",
    "settings.automod.linksbl": "Černá listina odkazů.",
    "settings.list.help": "Užití: `settings {{group}} {{setting}} [add|del] [item]`",
    "settings.list.delconfirm": "Tyto položky budou smazány. Jste si jisti [y/n]:\n```{{items}}```",
    "settings.list.delnomatch": "Nenašly se žádné položky na smazání.",
    "settings.automod.log": "Zapnout/vypnout záznam aktivit Automoderátora.",
    "settings.automod.channel": "Kanál pro záznam aktivit Automoderátora.",
    "music2.showQueueMore": "a {{size}} více",
    "words.container": "Kontejner",
    "words.gatewayVersion": "Brána Ayany",
    "music2.playfailed": ":no_entry_sign: Chyba přerušila píseň `{{title}}`. Přeskakuji...",
    "reminder.parseFailed": "Nemohu najít čas pro připomínku.",
    "music2.delete.fuzzyNoMatches": "Žádná píseň ve frontě neodpovídá vašemu dotazu.",
    "music2.delete.fuzzyExcessMatches": "Na váš dotaz se našlo příliš moc písní. Prosím, buďto vynuťte smazání nebo buďte specifičtí.",
    "music2.delete.confirm": "Tyto písně budou vymazány z fronty. Souhlasíte? [y/n]:\n```{{items}}```",
    "music2.delete.items": "Smazáno `{{items}}` písní z fronty.",
    "music2.delete.queueEmpty": "Fronta je prázdná, nic na vymazání.",
    "music2.delete.invalidIndex": "Specifikovali jste špatné číslo. Zkuste to znovu.",
    "reminder.invalidDuration": "Prosím, specifikuje čas větší než 2 minuty.",
    "reminder.gatewayFailure": "Nemohu se připojit k Bráně. Zkuste to znovu a později.",
    "reminder.list.none": "Nemáte žádné připomínky.",
    "reminder.list.invalidPage": "Neznámá strana.",
    "reminder.delete.confirm": "Tyto připomínky budou smazány. Je to v pořádku [y/n]:\n```{{items}}```",
    "reminder.created": "Dobře, připomenu vám to!",
    "reminder.delete.nomatches": "Žádné připomínky nebyly nalezeny.",
    "reminder.delete.done": "Připomínky smazány.",
    "reminder.fullhelp": "```\nreminder add <text připomínky> - přidejte připomínku\nreminder del <dotaz> - smaže připomínky podle dotazu.\nreminder list - ukáže seznam připomínek\n\nPříklady:\nreminder add zkontrolovat troubu in 1 hour\nreminder add zapnout zprávy in 20 min\n\n!!! Čas musí být uveden anglicky, tak jako na příkladech !!!```",
    "general.gatewayFailure": "Nemohu se připojit k Bráně. Zkuste to prosím později.",
    "general.pagination": "Strana {{page}} z {{pages}}",
    "general.pagination.invalidPage": "Neznámá strana.",
    "words.donators": "Přispěvatelé",
    "music2.queue.maxsize": "Dosáhli jste maximální povolené velikosti fronty (1000 písní).",
    "music2.provider.unknown": "Neznámý poskytovatel. Prosím použijte příkaz `music pv`, abyste zobrazili seznam správných poskytovatelů.",
    "donators.none": "Nemohu najít žádné přispěvatele.",
    "perms.validOpts": "Prosím uveďte jednu správnou úroveň oprávnění. `--guild, --channel [kanál], --role <role>, --user [uživatel]` nebo `--channel [dotaz], --role <dotaz>, --user [dotaz]`",
    "perms.invalidNode": "Špatné oprávnění. Použijte `perms nodes` pro jejich seznam.",
    "perms.roleRequired": "Musíte specifikovat roli pro nastavení role.",
    "perms.showGuild": "Oprávnění pro server",
    "perms.showChannel": "Oprávnění pro kanál `{{name}}`",
    "perms.showChannelUser": "Oprávnění v kanálu `{{cname}}` pro uživatele `{{uname}}`",
    "perms.showChannelRole": "Oprávnění v kanálu `{{cname}}` pro roli `{{rname}}`",
    "perms.showRole": "Oprávnění pro roli `{{name}}`",
    "perms.showUser": "Oprávnění pro uživatele `{{name}}`",
    "perms.allowGuild": "Povoleno `{{node}}` pro celý server",
    "perms.denyGuild": "Zrušeno `{{node}}` pro celý server",
    "perms.defaultGuild": "`{{node}}` bylo nastaveno na výchozí nastavení pro celý server",
    "perms.allowChannel": "Povoleno `{{node}}` pro kanál `{{name}}`",
    "perms.denyChannel": "Zrušeno `{{node}}` pro kanál `{{name}}`",
    "perms.defaultChannel": "Oprávnění `{{node}}` pro kanál `{{name}}` bylo změněno na výchozí nastavení",
    "perms.allowChannelUser": "Povoleno `{{node}}` v kanálu `{{cname}}` pro uživatele `{{uname}}`",
    "perms.denyChannelUser": "Zrušeno `{{node}}` v kanálu `{{cname}}` pro uživatele `{{uname}}`",
    "perms.defaultChannelUser": "`{{node}}` v kanálu `{{cname}}` pro uživatele `{{uname}}` bylo změněno na výchozí nastavení",
    "perms.allowChannelRole": "Povoleno `{{node}}` v kanálu `{{cname}}` pro roli `{{rname}}`",
    "perms.denyChannelRole": "Zrušeno `{{node}}` v kanálu `{{cname}}` pro roli `{{rname}}`",
    "perms.defaultChannelRole": "`{{node}}` v kanálu `{{cname}}` pro roli `{{rname}}` bylo změněno na výchozí nastavení",
    "perms.allowRole": "Povoleno `{{node}}` pro roli `{{name}}`",
    "perms.denyRole": "Zrušeno `{{node}}` pro roli `{{name}}`",
    "perms.defaultRole": "`{{node}}` pro roli `{{name}}` bylo změněno na výchozí nastavení",
    "perms.allowUser": "Povoleno `{{node}}` pro uživatele `{{name}}`",
    "perms.denyUser": "Zrušeno `{{node}}` pro uživatele `{{name}}`",
    "perms.defaultUser": "`{{node}}` pro uživatele `{{name}}` bylo změněno na výchozí nastavení",
    "words.directlink": "Přímý odkaz",
    "invite.patreon": "Ayana Patreon je exkluzivní možnost pro patrony Ayany!\nPokud chcete pomoct platit Ayanu a dostat nějaké bonusy, prosím uvažujte o podpoření :heart:!\n\n{{patreon}}",
    "invite.error": "Omlouvám se, nemám odkaz pro pozvánku pro `{{instance}}`.\nSprávné instance jsou `production, patreon, beta`",
    "flipcoin.heads": "Panna!",
    "flipcoin.tails": "Orel!",
    "perms.fullHelp": "```css\nperms <allow|default|deny> oprávnění [--guild]|[--user [dotaz]|[--role <dotaz>]|[--channel [dotaz] --role <role>]\n perms allow guild.ban --role admin\n perms deny fun.all --guild\n\nperms show [--guild]|[--user [search]|[--role <dotaz>]|[--channel [dotaz] --role <role>]\n perms show --guild\n perms show --channel general\n perms show --channel gen --user HcgRandon\n\n<> = vyžadováno, [] = volitelné, | = nebo. Prosím nepoužívejte <> [] | e vašich příkazech```\nVíce informací v angličtině na <https://ayana.io/permissions>",
    "help.rolemembers": "Užití: `rolemembers <role> [strana]` nebo `rolemembers <role> [--page <strana>]`",
    "rolemembers.headerPage": "Uživatelé s rolí {{role}}, strana {{page}} z {{total}}",
    "prune.invalidAmount": "Daná hodnota je nesprávná.",
    "prune.userHelp": "Parametr Uživatel potřebuje uživatele kterého hledat.",
    "prune.tooManyOptions": "Použili jste více než jednu z následující možností, což je nesprávné: `--all, --user, --bots`",
    "prune.deleteQuestion": "Všechny zprávy které odpovídají vašemu požadavku budou smazány NAVŽDY. Chcete pokračovat? (y/n)",
    "help.prune": "Užití: `prune <hodnota> [-all|--user [dotaz]|--bots] [--filter [filtr]|--embeds|--attachments|--pinned]`",
    "settings.autodel.prune": "Smazat všechen generovaný výstup po 10 sekundách?",
    "general.forbidden": "Zkusila jsem odpovědět na váš příkaz. Ale chybí mi na to oprávnění. Prosím, řekněte moderátorům, aby mi dali oprávnění posílat zprávy na Discordu.\n\nServer: `{{guild}}`\nKanál: `{{channel}}`\nPříkaz: `{{cmd}}`\n\nPokud nechcete abych posílala tyto zprávy, použijte příkaz `settings user dmerrors false` na serveru.",
    "words.contributors": "Přispěvatelé kódu",
    "question.timeout": "Čas na odpovězení otázky vypršel.",
    "question.cancelled": "Otázka je zrušena.",
    "prune.results": "Výsledky mazání",
    "prune.totalMsgsDeleted": "Celkem smazáno",
    "prune.oldMsgsDelted": "Staré zprávy byly smazány",
    "prune.oldMsgsNotDeleted": "Staré zprávy nebyly smazány",
    "prune.deletedByUser": "Zpráv smazáno podle uživatele",
    "prune.alreadyPruning": "Někdo začal mazání zpráv v tomto kanále, prosím počkejte než se mazání dokončí.",
    "words.arguments": "Argumenty",
    "words.delete": "Smazat",
    "words.uptime": "Čas od spustění Ayany",
    "help.pruneFull": "```css\n[Pomoc s mazáním]\n\nprune <hodnota> - Smaže zprávy\n\nMožnosti:\n    [--bots] - Smaže zprávy od botů\n    [--user <dotaz>] - Smaže zprávy od daného uživatele\n\n    [--filter <filtr>] - Smaže jen zprávy které obsahují daný dotaz\n\n    [--attachments | -a] - Smaže jen zprávy se soubory (dá se kombinovat s --embeds)\n    [--embeds | -e] - Smaže jen zprávy s odkazy (dá se kombinovat s --attachments)\n    [--pinned | -p] - Smaže i připnuté zprávy (ve výchozím nastavení nejsou mazány)\n    [--invites | -i] - Smaže jen zprávy s pozvánkami na servery.\n\n    [-s] - Tichy režim. Neposílá výsledky mazání na konci.\n\nPříklady:\n    prune 10\n    prune 10 -aes\n    prune 10 -s --filter ahoj\n\n<> = vyžadováno, [] = volitelné, | = nebo. Prosím vynechte <>, [] nebo | z vašeho příkazu.\nPro dotazy, prosím jděte na náš server podpory. (=support pro odkaz)```",
    "general.unableToDM": "Nemůžu vám poslat zprávu. Může to být tím, že máte vyplou možnost v nastavení soukromí Discordu `Povolit členům zasílat přímé zprávy`. Prosím zapněte toto nastavení, abych vám poslala tuto zprávu.",
    "general.targetHigherRole": "{{target}} má vyšší roli než vy. Nemůžete tohoto uživatele spravovat.",
    "general.notFound": "Není nalezeno",
    "help.avatar.short": "Získat avatar uživatele",
    "help.bad.short": "Obrázky lidí, kteří něco udělali špatně",
    "help.ban.short": "Zabanujte uživatele",
    "help.bigtext.short": "Generuje text pomocí regionálních indikátorů",
    "help.bigtextd.short": "Stejné jako bigtext, ale vymažu příkaz",
    "help.botlist.short": "Získá seznam botů z Carbonu",
    "help.channelinfo.short": "Získejte informace o kanálu",
    "help.clean.short": "Smažu moje zprávy v posledních 100 zprávách",
    "help.donators.short": "Seznam lidí, kteří pomáhají v existenci Ayany",
    "help.f.short": "F pro zaplacení respektu",
    "help.flipcoin.short": "Hoďte mincí",
    "help.help.short": "Ukáže toto",
    "help.info.short": "Ukáže informace bota",
    "help.inu.short": "Náhodné obrázky psů z random.dog",
    "help.invite.short": "Pozvěte mě na váš server",
    "help.kick.short": "Vyhoďte uživatele",
    "help.lenny.short": "( ͡° ͜ʖ ͡°) lenny tvář",
    "help.lewd.short": "To je bláznivé!",
    "help.lennyd.short": "Stejné jako lenny, ale smažu váš příkaz",
    "help.linkcheck.short": "Použije www.getlinkinfo.com aby se zkontrolovalo kam je odkaz přesměrován",
    "help.locale.short": "Nastavení jazyka",
    "help.modlog.short": "Nastavení záznamu moderace",
    "help.music.short": "Přehrávač hudby",
    "help.neko.short": "Náhodné obrázky koček z random.cat",
    "help.pat.short": "Poklepejte někoho",
    "help.perms.short": "Nastavení oprávnění",
    "help.ping.short": "Ping-pong",
    "help.pout.short": "Dejte někomu pusu",
    "help.prefix.short": "Zjistěte předponu bota",
    "help.prune.short": "Mazání zpráv",
    "help.rank.short": "Dejte někomu rank ze SAR (samozařaditelných rolí)",
    "help.reminder.short": "Nechte si něco připomenout",
    "help.role.short": "Dejte, odebírejte a upravujte role",
    "help.roleinfo.short": "Získejte informaci o roli",
    "help.rolemembers.short": "Vypište seznam členů s rolí",
    "help.sar.short": "Nastavení samozařaditelných rolí",
    "help.say.short": "Nechte mě něco říct za vás",
    "help.sayd.short": "Stejné jako say, ale smažu váš příkaz",
    "help.serverinfo.short": "Získejte informace o serveru",
    "help.settings.short": "Nastavení",
    "help.shrug.short": "¯\\_(ツ)_/¯ shrug",
    "help.smug.short": "Označte někoho za sobce",
    "help.sumfuk.short": "Ty chceš nějaké jebání?",
    "help.shrugd.short": "Stejné jako shrug, ale smažu váš příkaz",
    "help.support.short": "Pozvánka na server podpory",
    "help.userinfo.short": "Získejte informace o uživateli",
    "help.waa.short": "Obrázky plačících lidí, když jste opravdu smutní",
    "help.bigtext.full": "Užití: `bigtext <text> [--spacesize <číslo] [--addspace <číslo>]",
    "help.role.full": "```css\n[Pomoc s rolemi]\n\nrole give <role[,role]> - dá role\nrole take <role[,role]> - sebere role\nrole modify <role> - upraví roli\n\nAliasy:\ngiverole, takerole, modifyrole\n\nMožnosti pro role give a pro role take:\n\n[--bots] - upraví role pro boty\n[--user <uživatel[, uživatel]>] - upraví role pro dané uživatele\n[--inrole <role>] - upraví role jen pro uživatele, kteří mají tuto roli\n[--notinrole <role>] - upraví role jen pro uživatele, kteří nemají tuto roli\n[--norole] - upraví role jen pro uživatele, kteří nemají žádnou roli\n\nMožnosti pro role modify:\n[--name <jméno>] - přejmenuje roli\n[--color <barva>] změní barvu role\n[--move-after <role>] - Změní pozici role pod danou roli\n\nPříklady:\n    role give Admin, Mod --user TheAkio\n    giverole Bot --inrole Bot\n    takerole Muted --user HcgRandon, TheAkio\n    role modify Bad --color #FF0000\n    modifyrole Admin --color blue\n\nPoznámka:\nTento příkaz vám nedovolí dávat, sebrat nebo upravit role nad vaší nejvyšší rolí!\n\n<> = vyžadováno, [] = volitelné, | = nebo, prosím nedávejte <> [] nebo | do vašeho příkazu.\nProsím přijďte na náš server podpory pro otázky (=support pro pozvánku)```",
    "general.ayanaRoleTooLow": "Nemůžu použít nebo upravit roli `{{role}}`protože moje nejvyšší role není nad ní. Prosím, dejte mi vyšší roli.",
    "general.userRoleTooLow": "Role `{{role}}`nemůže být použita nebo upravena protože vaše role není nad ní.",
    "general.noDiscordPermission": "Omlouvám se, chybí mi oprávnění Discordu `{{perm}}`.",
    "general.pagination.blocked": "Stránkování je pro vás zablokované. Prosím zavřete probíhající stránkování.",
    "general.pagination.altNavi": "Napište `<` nebo `>` pro změnu stránky. Napište `p<číslo>` pro přeskočení na stránku (např. `p10`).",
    "general.pagination.altClose": "Napište `x` pro zavření stránkování.",
    "general.pagination.perms": "Vypadá to, že nemám oprávnění Discordu `Spravovat zprávy`. Pokud je tohle oprávění dáno, automaticky smažu zprávy navigace stránkování.",
    "help.aliases.short": "Spravujte aliasy",
    "help.sar.full": "```css\n[Pomoc se samozařaditelnými rolemi (SAR)]\n\nsar | sar help - Ukáže tohle\nsar create <skupina> - Vytvoří skupinu SAR\nsar delete <skupina> - Smaže skupinu SAR\nsar rename <skupina> <nové jméno> - Přejmenuje skupinu SAR\nsar groups - Vypíše všechny skupiny\n\nÚprava skupin:\n    sar <skupina> active <true|false> - Aktivuje nebo deaktivuje skupinu\n    sar <skupina> reqrole <role> - Nastaví roli, kterou uživatel musí mít pro použití skupiny\n    sar <skupina> max <number> - Nastaví maximum rolí kterou uživatel může mít z téhle skupiny\n    sar <skupina> roles add <role[,role...]> - Přidá roli do skupiny\n    sar <skupina> roles remove <role[,role...]> - Odebere roli ze skupiny\n    sar <skupina> default - Nastaví skupinu jako výchozí\n\nPříklady:\n    sar create barvy\n    sar barvy default\n    sar barvy roles add Červená, Zelená, Modrá\n    sar barvy max 1\n    sar barvy active false\n\nPoznámka:\n    Pro zařazení do rolí použijte {{prefix}}rank [skupina]\n\n<> = vyžadováno, [] = volitelné, | = nebo, nepoužívejte <> [] nebo | ve vašem příkazu\nPřijďte na náš server podpory pro jakékoliv dotazy. ({{prefix}}support pro odkaz)```",
    "help.aliases.full": "```css\n[Pomoc s aliasy]\n\naliases list - Vypíše všechny aliasy na serveru\naliases rename <alias> <nové jméno> - Přejmenuje aliasy\naliases remove <alias> - Odstraní aliasy\naliases <alias> userargs <true|false> - Povolí nebo zakáže přídávání argumentů a možností k aliasu když je spuštěn\n\nJak vytvořit alias:\n    Zadejte příkaz a přidejte na konec '--addalias <alias>\n    Například, chcete udělat alias '{{prefix}}hello' pro '{{prefix}}say hello'.\n    Pro přidání aliasu byste spustili '{{prefix}}say hello --addalias hello'.\n    Možnosti jsou uloženy když je alias přidán (kromě --addalias).\n\n\n<> = vyžadováno, [] = volitelné, | = nebo, nepoužívejte <> [] nebo | ve vašem příkazu\nPřijďte na náš server podpory pro jakékoliv dotazy. ({{prefix}}support pro odkaz)```",
    "aliases.noAliasDefined": "Musíte definovat alias: `--addalias <alias>`.",
    "aliases.alreadyAyanaCmd": "Alias který se pokoušíte nastavit je příkaz Ayany.",
    "aliases.alreadyExists": "Alias `{{alias}}` už existuje.",
    "aliases.aliasAdded": "Alias `{{alias}}` je přidán pro `{{cmd}}`.",
    "aliases.notAlphanumeric": "Alias musí být alfanumerický. Zadali jste `{{input}}`.",
    "aliases.addHelp": "Zadejte příkaz a přidejte na konec '--addalias <alias>.",
    "aliases.notExistent": "Alias `{{alias}}` neexistuje.",
    "aliases.removed": "Alias `{{alias}}` je odstraněn.",
    "aliases.renamed": "Alias `{{alias}}` je přejmenován na `{{new}}`.",
    "aliases.cannotAddAliasToAlias": "Nemůžete přidat alias na alias.",
    "aliases.cannotHaveMore": "Nemůžete mít více než {{amnt}} aliasů.",
    "aliases.empty": "Na tomhle serveru nejsou žádné aliasy. Spusťte příkaz `aliases` bez argumentů pro pomoc.",
    "aliases.updatedAlias": "Změnila jsem nastavení `{{key}}` pro alias `{{alias}}` na hodnotu `{{value}}`.",
    "aliases.setting.userargs": "Povolí nebo zakáže přídávání argumentů a možností k aliasu když je spuštěn",
    "aliases.userargs": "Uživatelské argumenty",
    "bigtext.outputTooLarge": "Ups! Výstup je delší než 2000 znaků!",
    "finder.headerRoleCSV": "Prosím vyberte roli, kterou jste mysleli s `{{search}}`",
    "finder.skippingUser": "Přeskakuji uživatele `{{search}}`",
    "finder.skippingRole": "Přeskakuji roli `{{search}}`",
    "locale.percent": "[{{num}} %]",
    "locale.usageShort": "Užití: `locale set [jazyk] [--guild]` nebo  `locale list`",
    "general.pagination.cooldown": "Wau! Trochu otravné - vstupy stránkování jsou právě teď pozastaveny.",
    "general.banInfo": "Byli jste zabanováni ze serveru na kterém jste byli.",
    "general.commandNotFound": "Tento příkaz není nalezen.",
    "help.footer": "<> = vyžadováno, [] = volitelné, | = nebo. Nepoužívejte <> [] nebo | ve vašem příkazu.\nPro otázky přijďte na náš server podpory. ({{prefix}}support pro odkaz)",
    "help.cmdForMoreInfo": "Spusťte `{{cmd}}` pro více informací o tomto příkazu.",
    "help.aliases.header": "[Pomoc s aliasy]",
    "help.aliases.desc.list": "Vypíše všechny aliasy na tomto serveru",
    "help.aliases.desc.rename": "Přejmenuje aliasy",
    "help.aliases.desc.remove": "Vymaže aliasy",
    "help.aliases.desc.userargs": "Povolí nebo zakáže přidávání argumentů a možností, když je alias spuštěn",
    "help.aliases.group.createAlias": "Vytvoří alias",
    "help.aliases.desc.createAlias": "    Napište příkaz jako byste normálně zadali a přidejte '--addalias <alias>' na jeho konec.\nDejme tomu, chcete vytvořit alias '{{prefix}}ahoj' pro příkaz '{{prefix}} say ahoj'.\nPro přidání tohoto aliasu byste spustili '{{prefix}}say ahoj --addalias ahoj'.\nMožnosti a argumenty jsou uloženy při přidání aliasu (kromě --addalias).",
    "help.music.header": "[Pomoc s hudbou]",
    "help.music.desc.queue": "Ukáže frontu nebo zařadí píseň/seznam písní do fronty",
    "help.music.desc.enqueue": "Zařadí píseň/seznam písní do fronty",
    "help.music.desc.enqueueNext": "Zařadí píseň nebo seznam písní na další pozici",
    "help.music.desc.purge": "Smaže frontu",
    "help.music.desc.delete": "Smaže 1 a více písní z fronty",
    "help.music.desc.play": "Začne přehrávání písní",
    "help.music.desc.skip": "Přeskočí aktuální píseň",
    "help.music.desc.shuffle": "Přehází náhodně frontu",
    "help.music.desc.repeat": "Zapne/vypne opakování",
    "help.music.desc.providers": "Vypíše seznam dostupných poskytovatelů",
    "help.afk.short": "Řekněte lidem že jste pryč když vás zmíní",
    "help.music.desc.join": "Přijde do vašeho hlasového kanálu",
    "help.music.desc.leave": "Odejde z hlasového kanálu",
    "help.perms.header": "[Pomoc s oprávněními]",
    "help.perms.desc.allow": "Povolí oprávnění (přidejte přesně jednu z možností dole)",
    "help.perms.desc.deny": "Zakáže oprávnění (přijdejte přesně jednu z možností dole)",
    "help.perms.desc.show": "Ukáže oprávnění (přijdejte přesně jednu z možností dole)",
    "help.perms.desc.nodes": "Vypíše všechna oprávnění",
    "general.invalidEmbed": "Embed který jsem chtěla poslat je špatný. Validátor vypsal tuto chybu. Pokud potřebujete pomoc, prosím nahlaste tuto chybu na serveru podpory (`support` pro pozvánku)\n```{{error}}```",
    "general.invalidOpt": "Byla užita špatná možnost `{{opt}}`. Prosím opravte váš vstup a zkuste to znovu.",
    "general.invalidFlag": "Byl užit špatný přepínač `{{flag}}`. Prosím opravte váš vstup a zkuste to znovu.",
    "help.perms.desc.default": "Nastaví oprávnění na výchozí nastavení (přidejte přesně jednu z možností dole)",
    "help.perms.desc.channelUser": "Nastaví nebo ukáže oprávnění uživatele v kanálu",
    "help.perms.desc.channelRole": "Nastaví nebo ukáže oprávnění role v kanálu",
    "help.perms.desc.channel": "Nastaví nebo ukáže oprávnění kanálu",
    "help.perms.desc.user": "Nastaví nebo ukáže oprávnění uživatele",
    "help.perms.desc.role": "Nastaví nebo ukáže oprávnění role",
    "help.perms.desc.guild": "Nastaví nebo ukáže oprávnění na serveru",
    "help.prune.header": "[Pomoc s mazáním]",
    "help.prune.desc.prune": "Smaže zprávy",
    "help.prune.desc.bots": "Smaže zprávy jen od botů",
    "help.prune.desc.user": "Smaže zprávy od daného uživatele",
    "help.prune.desc.filter": "Smaže zprávy obsahující daný řetězec",
    "help.prune.desc.attachments": "Smaže zprávy s příponami (může být kombinováno s --embeds)",
    "help.prune.desc.embeds": "Smaže zprávy s embedy (může být kombinováno s --attachments)",
    "help.prune.desc.pinned": "Také smaže připnuté zprávy (nejsou mazány ve výchozím nastavení)",
    "help.prune.desc.invites": "Smaže zprávy s pozvánkami",
    "help.prune.desc.reactions": "Smaže jen reakce z daných zpráv místo mazání",
    "help.prune.desc.system": "Jen odstraní systémové zprávy (Ignoruje -a, -e, -p, -i a -r)",
    "help.prune.desc.silent": "Ticho. Nevypíše výsledky mazání na konci",
    "help.perms.desc.note": "    Oprávnění jsou v pořadí nastavení, tzn. oprávnění uživatele v kanálu je\n    nejvyšší stupeň a oprávnění serveru je nejnižší.",
    "help.reminder.header": "[Pomoc s připomínkami]",
    "help.reminder.desc.add": "Přidá novou připomínku",
    "help.reminder.desc.remove": "Odstraní připomínku podle daného dotazu nebo její ID",
    "help.reminder.desc.list": "Ukáže seznam vašich připomínek",
    "help.role.header": "[Pomoc s rolemi]",
    "help.role.desc.give": "Dá roli",
    "help.role.desc.take": "Odebere roli",
    "help.role.desc.modify": "Upraví roli",
    "help.role.options.giveTake": "Možnosti pro role give a role take",
    "help.role.desc.bots": "Změní role jen pro boty",
    "help.role.desc.users": "Změní role jen pro uživatele",
    "help.role.desc.user": "Změní role jen pro dané uživatele",
    "help.role.desc.inrole": "Změní role jen když uživatel má danou roli",
    "help.role.desc.notinrole": "Změní role jen když uživatel nemá danou roli",
    "help.role.desc.noroles": "Změní role jen když uživatel nemá žádné role",
    "help.role.options.modify": "Možnosti pro role modify",
    "help.role.desc.name": "Přejmenuje roli",
    "help.role.desc.color": "Změní barvu role",
    "help.role.desc.moveAfter": "Nastaví pozici role po dané roli",
    "help.role.desc.note": "    Tento příkaz vám nedovolí dát, odebrat nebo upravit role\n    které jsou vyšší nebo rovné pozice než vaše nebo Ayanina nejvyšší role.",
    "help.sar.header": "[Pomoc se samozařaditelnými rolemi (SAR)]",
    "help.sar.desc.help": "Ukáže tuto zprávu",
    "help.sar.desc.create": "Vytvoří skupinu SAR",
    "help.sar.desc.delete": "Odstraní skupinu SAR",
    "help.sar.desc.rename": "Přejmenuje skupinu SAR",
    "help.sar.desc.groups": "Vypíše seznam skupin SAR",
    "help.sar.groupModification": "Úprava skupin",
    "help.sar.desc.active": "Aktivuje nebo deaktivuje tuto skupinu",
    "help.sar.desc.reqrole": "Nastaví nutnou roli kterou uživatel musí mit pro použití této skupiny",
    "help.sar.desc.max": "Nastaví maximální počet rolí uživatel může mít z této skupiny",
    "help.sar.desc.rolesAdd": "Přidá role do skupiny",
    "help.sar.desc.rolesRemove": "Odebere role ze skupiny",
    "help.sar.desc.default": "Nastaví nebo zruší nastavení této skupiny jako výchozí",
    "help.sar.desc.note": "    Pro použití rozhraní pro zařazení použijte {{prefix}}rank [skupina]"
}
