{
	"general.guildOnly": "Only available in servers.",
	"general.unableToDM": "I was unable to send you a direct message. This may be caused by you having the option `Allow direct messages from server members` in your Discord privacy settings set to false. Please enable this option to receive this direct message.",
	"general.invalidEmbed": "The embed that I tried to send was invalid. The validator printed out the following error. If you need more help, please report this to our support server (`support` command to get the invite).\n```{{error}}```",
	"general.error": "An error occurred. If you need more help, please report this to our support server (`support` command to get the invite).\n```{{error}}```",
	"general.forbidden": "I tried to send a reply to your command, however, I lack the permission to. Please have someone from the staff give me the `Send Messages` Discord permission.\n\nServer: `{{guild}}`\nChannel: `{{channel}}`\nCommand: `{{cmd}}`\n\nIf you no longer wish to see these messages please run `settings user dmerrors false` in the server.",
	"general.gatewayFailure": "Failed to contact Gateway. Please try again later.",
	"general.cooldown": "Woah! Way too spicy - this command is currently on cooldown.",
	"general.pagination.cooldown": "Woah! Way too spicy - the pagination inputs are currently on cooldown.",
	"general.ayanaRoleTooLow": "I cannot use or modify the role `{{role}}` because my highest role is not above it. Please move me to a higher role.",
	"general.userRoleTooLow": "The role `{{role}}` cannot be used or modified because your highest role is not above it.",
	"general.pagination": "Page {{page}}/{{pages}}",
	"general.targetHigherRole": "{{target}} possesses a higher role than you. You may not modify them.",
	"general.targetHigherThanAyana": "{{target}} possesses a higher role than I do. I can't modify them.",
	"general.pagination.invalidPage": "Invalid page.",
	"general.notFound": "Not found",
	"general.noDiscordPermission": "Sorry, I lack the `{{perm}}` Discord permission.",
	"general.pagination.altNavi": "Type `<` and `>` to switch the page. Type `p<num>` to jump to a page (ex. `p10`).",
	"general.pagination.altClose": "Type `x` to close the pagination.",
	"general.pagination.perms": "It doesn't look like I have the `manageMessages` Discord permission. I will auto delete page switching messages if this perm is given.",
	"general.banInfo": "You have been banned from a server you were on.",
	"general.kickInfo": "You have been kicked from a server you were on.",
	"general.commandNotFound": "This command could not be found.",
	"general.invalidOpt": "You entered the invalid option `{{opt}}`. Please fix your command input and try again.",
	"general.invalidFlag": "You entered the invalid flag `{{flag}}`. Please fix your command input and try again.",
	"general.discordError": "Discord had a problem while processing the last request. Please try again. ({{error}})",
	"general.mustBeNumber": "`{{obj}}` must be a number.",
	"general.mustBeNumberSmallerEq": "`{{obj}}` must be a number <= {{bound}}.",
	"general.andMore": "... and {{amnt}} more",
	"help.footer": "<> = required information, [] = optional information, | = or. Do not include <> [] or | in your command input.\nPlease join the support server for any questions. ({{prefix}}support for link)",
	"help.cmdForMoreInfo": "Run `{{cmd}}` for more information about this command.",
	"help.sentToDM": "Okay, check your private messages. I've sent the help there.",
	"help.dmError": "Sorry, I couldn't send the help to your DM. Please make sure that I'm able to send you a direct message.",
	"help.fullHelp.header": "{{emoji}} **Hello! I'm Ayana!**\n\nBelow you can see all the commands I know.\nIf you need further help with something join our [Support Server]({{invite}}).\n\n**Have a nice day!**",
	"help.fullHelp.info": "**Use `{{catHelp}}` for more information about a category.\nUse `{{cmdHelp}}` for more information about a command.**\n\n**Examples:**\n`{{prefix}}help ayana` for an overview of the Ayana category.\n`{{prefix}}help music` for detailed help for the music command.",
	"help.fullHelp.usefulLinks": "**Useful links:**\n[Invite Me]({{invite}}), [Minimal Invite]({{inviteMin}}), [Ayana Status]({{status}}), [Support Server]({{supportInvite}}), [Donate]({{donate}}), [Twitter]({{twitter}}), [Facebook]({{facebook}})",
	"help.aliases.short": "Manage command aliases",
	"help.aliases.header": "[Aliases Help]",
	"help.aliases.desc.list": "Lists all aliases created in this server",
	"help.aliases.desc.rename": "Renames aliases",
	"help.aliases.desc.remove": "Removes aliases",
	"help.aliases.desc.userargs": "Allows or denies arguments, options and flags to be added to the alias when it's executed",
	"help.aliases.group.createAlias": "Creates an alias",
	"help.aliases.desc.createAlias": "    Type the command as you would normally do and add '--addalias <alias>' to the end of it.\n    Let's say you want to make '{{prefix}}hello' as an alias for '{{prefix}}say hello'.\n    To add this alias you would execute '{{prefix}}say hello --addalias hello'.\n    Options and flags are also saved when an alias is added (except --addalias of course).",
	"help.afk.short": "Let people know you are AFK when they mention you",
	"help.avatar.short": "Get a user's avatar",
	"help.ban.short": "Ban users",
	"help.bigtext.short": "Generates text with regional indicators",
	"help.bigtextd.short": "Same as bigtext, but I also remove your command",
	"help.botlist.short": "Get botlist from carbon",
	"help.channelinfo.short": "Get information about a channel",
	"help.clean.short": "I will delete my messages in the last 100 messages",
	"help.donators.short": "List of people who help to make Ayana possible",
	"help.f.short": "F to pay respects",
	"help.flipcoin.short": "Flip a coin",
	"help.fortune.short": "Fortune cookie messages",
	"help.help.short": "Display this message",
	"help.info.short": "Display bot information",
	"help.invite.short": "Have me join your server",
	"help.kick.short": "Kick users",
	"help.lenny.short": "( ͡° ͜ʖ ͡°)",
	"help.lewd.short": "That's lewd!",
	"help.lennyd.short": "Same as lenny, but I also remove your command",
	"help.linkcheck.short": "Uses www.getlinkinfo.com to check where a link redirects",
	"help.locale.short": "Language settings interface",
	"help.modlog.short": "ModLog settings interface",
	"help.music.short": "Music player",
	"help.music.header": "[Music Help]",
	"help.music.desc.queue": "Shows queue or enqueues a song/playlist",
	"help.music.desc.enqueue": "Enqueues a song/playlist",
	"help.music.desc.enqueueNext": "Enqueues a song/playlist as the next item",
	"help.music.desc.volume": "Adjust volume of playback",
	"help.music.desc.nowplaying": "Shows the song that is being played",
	"help.music.desc.purge": "Removes all items from the queue",
	"help.music.desc.delete": "Deletes one or more items from the queue",
	"help.music.desc.play": "Plays and/or enqueues a song/playlist",
	"help.music.desc.skip": "Skips/Removes the item in position 1 of the queue",
	"help.music.desc.shuffle": "Shuffles the queue",
	"help.music.desc.repeat": "Manages queue repeat",
	"help.music.desc.providers": "Shows a list of available providers",
	"help.music.desc.join": "Joins your current voice channel",
	"help.music.desc.leave": "Leaves the voice channel",
	"help.music.desc.bindVoice": "Specifies the voice channel to connect to",
	"help.music.desc.bindText": "Specifies the text channel to bind to",
	"help.music.desc.selectRegion": "Forces a connection to the specified region",
	"help.music.desc.enqueuePosition": "Enqueues a song/playlist to the specified position",
	"help.perms.short": "Permission control interface",
	"help.perms.header": "[Permissions Help]",
	"help.perms.desc.allow": "Allows a permission node (append exactly one of the options listed below)",
	"help.perms.desc.default": "Defaults a permission node (append exactly one of the options listed below)",
	"help.perms.desc.deny": "Denies a permission node (append exactly one of the options listed below)",
	"help.perms.desc.show": "Shows permissions (append exactly one of the options listed below)",
	"help.perms.desc.nodes": "Lists all permission nodes",
	"help.perms.desc.channelUser": "Sets or shows channel user permissions",
	"help.perms.desc.channelRole": "Sets or shows channel role permissions",
	"help.perms.desc.channel": "Sets or shows channel permissions",
	"help.perms.desc.user": "Sets or shows user permissions",
	"help.perms.desc.role": "Sets or shows role permissions",
	"help.perms.desc.guild": "Sets or shows server permissions",
	"help.perms.desc.note": "    The permissions are in the order of the options, that means that channel user\n    is the highest level and server (guild) is the lowest level.",
	"help.pick.short": "Let me help you when you can't decide",
	"help.ping.short": "Ping Pong",
	"help.prefix.short": "Check the bot's prefix",
	"help.pro.short": "Ayana PRO management",
	"help.pro.header": "[Ayana PRO Help]",
	"help.pro.desc.upgrade": "Upgrades this server to Ayana PRO",
	"help.pro.desc.downgrade": "Downgrades this server or the one specified with the ID from Ayana PRO",
	"help.pro.desc.status": "Shows your running Ayana PRO subscriptions and upgrade count",
	"help.pro.desc.check": "Shows if this server has Ayana PRO or not and who upgraded it",
	"help.pro.desc.redeem": "Redeems an Ayana PRO key",
	"help.prune.short": "Message pruning",
	"help.prune.header": "[Prune Help]",
	"help.prune.desc.prune": "Prunes messages by the specified amount",
	"help.prune.desc.pruneUntil": "Prunes messages until the given message is reached",
	"help.prune.desc.bots": "Prunes all messages created by any bot",
	"help.prune.desc.user": "Prunes all messages by the specified user",
	"help.prune.desc.filter": "Only prunes messages that contain the specified string",
	"help.prune.desc.attachments": "Only prunes messages containing attachments (can be combined with --embeds)",
	"help.prune.desc.embeds": "Only prunes messages containing embeds (can be combined with --attachments)",
	"help.prune.desc.pinned": "Also prunes pinned messages (they are not pruned by default)",
	"help.prune.desc.invites": "Only prunes messages containing Discord invites",
	"help.prune.desc.reactions": "Only removes the reactions from the targeted messages instead of deleting them",
	"help.prune.desc.system": "Only removes system messages (Ignores -a, -e, -p, -i and -r)",
	"help.prune.desc.silent": "Silent. Disables printing the prune results at the end",
	"help.random.short": "Random number generator",
	"help.rank.short": "Assign ranks from SAR",
	"help.reminder.short": "Let me remind you",
	"help.reminder.header": "[Reminder Help]",
	"help.reminder.desc.add": "Adds a new reminder",
	"help.reminder.desc.remove": "Removes a reminder by search or ID",
	"help.reminder.desc.list": "Shows a list of your reminders",
	"help.role.short": "Give, take and modify roles",
	"help.role.header": "[Role Help]",
	"help.role.desc.give": "Gives roles",
	"help.role.desc.take": "Takes roles",
	"help.role.desc.modify": "Modifies a role",
	"help.role.options.giveTake": "Options for role give and role take",
	"help.role.desc.bots": "Will only change roles for bots",
	"help.role.desc.users": "Will only change roles for users",
	"help.role.desc.user": "Will only change roles for specified users",
	"help.role.desc.inrole": "Will only change roles if the target has the specified role",
	"help.role.desc.notinrole": "Will only change roles if the target doesn't have the specified role",
	"help.role.desc.noroles": "Will only change roles if the target doesn't have any roles",
	"help.role.options.modify": "Options for role modify",
	"help.role.desc.name": "Renames a role",
	"help.role.desc.color": "Changes the color of a role",
	"help.role.desc.moveAfter": "Sets role position after target role",
	"help.role.desc.note": "    This command will not allow you to give, take or modify roles\n    that are in a higher or equal position than your or Ayana's highest role.",
	"help.roleinfo.short": "Get information about a role",
	"help.rolemembers.short": "List the members of a role",
	"help.sar.short": "Self assignable roles settings interface",
	"help.sar.header": "[Self Assignable Roles (SAR) Help]",
	"help.sar.desc.help": "Shows this help message",
	"help.sar.desc.create": "Creates a SAR group",
	"help.sar.desc.delete": "Deletes a SAR group",
	"help.sar.desc.rename": "Renames a SAR group",
	"help.sar.desc.groups": "List all SAR groups",
	"help.sar.groupModification": "Group modification",
	"help.sar.desc.active": "Activates or deactivates this group",
	"help.sar.desc.reqrole": "Sets the role that a user needs to have to use this group",
	"help.sar.desc.max": "Sets the max amount of roles a user can have from this group",
	"help.sar.desc.rolesAdd": "Adds roles to this group",
	"help.sar.desc.rolesRemove": "Removes roles from this group",
	"help.sar.desc.default": "Sets or unsets this group as the default one",
	"help.sar.desc.note": "    To use the assignment interface you need to use {{prefix}}rank [group]",
	"help.say.short": "Have me say something",
	"help.sayd.short": "Same as say, but I also remove your command",
	"help.serverinfo.short": "Get information about the server",
	"help.settings.short": "Settings control interface",
	"help.shrug.short": "¯\\_(ツ)_/¯",
	"help.sumfuk.short": "u want sum fuk?",
	"help.shrugd.short": "Same as shrug, but I also remove your command",
	"help.support.short": "Invite link for the support server",
	"help.urban.short": "Looks up a word on urbandictionary.com",
	"help.userinfo.short": "Get information about a user",
	"help.awoo.short": "Momiji/Wan images that 'awoo'",
	"help.bang.short": "Shoot something or someone",
	"help.blush.short": "Images of blushing characters",
	"help.confused.short": "Confused anime girl images",
	"help.cuddle.short": "Cuddle images; you can also mention someone to cuddle them",
	"help.dance.short": "Images of dancing characters",
	"help.hug.short": "Hugging images; you can also mention someone to hug them",
	"help.idk.short": "Shrug images for when you have no idea",
	"help.insult.short": "Random insult images; you can also mention someone to insult them",
	"help.inu.short": "Random images of dogs from random.dog",
	"help.jojo.short": "JoJo's Bizarre Adventure memes",
	"help.kiss.short": "Kissing images; you can also mention someone to kiss them",
	"help.lick.short": "Licking images; you can also mention someone to lick them",
	"help.megumin.short": "Megumin GIFs from the anime Konosuba",
	"help.neko.short": "Random cat images from random.cat",
	"help.nom.short": "Random nomming/eating images",
	"help.nyan.short": "Images of cat girls",
	"help.owo.short": "'OwO, what's this?' memes",
	"help.poke.short": "Poke images; you can also mention a user to poke them",
	"help.slap.short": "Slap images; you can also mention a user to slap them",
	"help.sleepy.short": "Images of sleeping characters",
	"help.smile.short": "Images of characters smiling",
	"help.spongebob.short": "Spongebob mocking meme; also memes the text you give",
	"help.stare.short": "Images of characters that are staring; you can also mention a user to stare at them",
	"help.teehee.short": "Giggle reaction images",
	"help.thumbsup.short": "Thumbs up images",
	"help.triggered.short": "Triggered memes; you can also mention a user to show them you are triggered at them",
	"help.wag.short": "Images of characters wagging their tail",
	"help.waifuinsult.short": "'Your waifu is shit' memes",
	"help.wasted.short": "Wasted memes",
	"help.bad.short": "Images of characters that did something bad",
	"help.pat.short": "Headpatting images; you can also mention a user to pat them",
	"help.pout.short": "Images of pouting characters",
	"help.smug.short": "Images of smug characters",
	"help.waa.short": "Images of crying characters for when you are sad",
	"afk.mentionMessage": "The user {{user}} is currently AFK.",
	"afk.noLongerAfk": "You are no longer AFK.",
	"afk.afkSince": "AFK since",
	"afk.nowAfk": "You are now AFK. The following message will be displayed if people mention you and AFK messages are enabled in the server:",
	"afk.messageTooLarge": "Your AFK message cannot be larger than 1024 characters.",
	"aliases.noAliasDefined": "You need to define an alias: `--addalias <alias>`.",
	"aliases.alreadyAyanaCmd": "The alias you tried to set is already used by Ayana.",
	"aliases.alreadyExists": "The alias `{{alias}}` already exists.",
	"aliases.aliasAdded": "The alias `{{alias}}` has been added for `{{cmd}}`.",
	"aliases.notAlphanumeric": "The alias must be alphanumeric. You entered `{{input}}`.",
	"aliases.notValid": "The alias you entered must not contain the following characters: `\", -, \\`.",
	"aliases.addHelp": "To add aliases use the command you want to add like you would normally and add `--addalias <alias>` to the end of it.",
	"aliases.notExistent": "The alias `{{alias}}` does not exist.",
	"aliases.removed": "The alias `{{alias}}` has been removed.",
	"aliases.renamed": "The alias `{{alias}}` has been renamed to `{{new}}`.",
	"aliases.cannotAddAliasToAlias": "You cannot add an alias for an alias.",
	"aliases.cannotHaveMore": "You cannot have more than {{amnt}} aliases.",
	"aliases.empty": "There are no aliases for this server. Please run the `aliases` command without arguments to see help.",
	"aliases.updatedAlias": "Changed `{{key}}` for alias `{{alias}}` to `{{value}}`.",
	"aliases.setting.userargs": "Allow or deny users to add arguments, options or flags to the command your alias is executing",
	"aliases.userargs": "User arguments",
	"aliases.newName": "New name",
	"bigtext.outputTooLarge": "Whoops! The output message is larger than 2000 characters!",
	"finder.failUser": "Unable to find matching user.",
	"finder.failRole": "Unable to find matching role.",
	"finder.failChannel": "Unable to find matching channel.",
	"finder.headerRole": "Please pick the role you want to use",
	"finder.headerUser": "Please pick the user you want to use",
	"finder.headerChannel": "Please pick the channel you want to use",
	"finder.headerRoleCSV": "Please pick the role you meant with `{{search}}`",
	"finder.skippingUser": "Skipping user `{{search}}`",
	"finder.skippingRole": "Skipping role `{{search}}`",
	"fortune.invalidCategory": "Invalid category! Valid categories are `{{categories}}`.",
	"invite.text": "Sure thing :ok_hand:\n\nTo have me join your server please choose one of the following links:\n\nModeration (recommended): {{invite}}\nMinimal (not recommended): {{invitemin}}",
	"invite.patreon": "Ayana Patreon is an exclusive perk available to patrons of Ayana!\nIf you want to help pay Ayana's bills and get some awesome perks in the process, then please consider donating :heart:!\n\n{{patreon}}",
	"invite.alpha": "Sure thing :ok_hand:\n\nTo have me join your server please click on the link below:\n\n{{invite}}\n\nNote: Don't give Ayana Alpha too many permissions on your server. She is really unstable and there is no warranty if she breaks something on your server.",
	"flipcoin.heads": "Heads!",
	"flipcoin.tails": "Tails!",
	"locale.percent": "[{{num}}%]",
	"locale.userUpdate": "Your locale has been set to `{{locale}}`.",
	"locale.guildUpdate": "Server locale has been set to `{{locale}}`.",
	"locale.invalidLocale": "`{{input}}` is not a recognized locale. Please run `locale list` for a list of valid options.\n Alternatively if you want to help translate me to your language, go to {{url}}",
	"locale.current": "```css\nCurrent Settings\n  Server: {{guild}}\n  User: {{user}}```\n{{help}}\nAlso if you want to help translate me to your language go to {{url}}",
	"modlog.genFail": "Modlog failure.",
	"modlog.addFail": "Failed to add new modlog item.",
	"modlog.created": "Modlog item created.",
	"modlog.updated": "Modlog item updated.",
	"modlog.updateFail": "Failed to update log item details.",
	"modlog.hackAdd": "Looks like `{{input}}` is a user id. Continue [y/n]?",
	"perms.denied": "You lack the `{{node}}` permission.",
	"perms.cmdDenied": "Permission denied. You must either be the server owner or have administrator permissions to edit permissions.",
	"perms.resetall.owner": "This command can only be used by the server owner.",
	"perms.resetall.reset": "Permissions reset.",
	"perms.resetall.error": "Failed to reset all perms.",
	"perms.failedUpdate": "Failed to update permission node. Please contact support if this error persists.",
	"perms.validOpts": "Please specify one valid permission level: `--guild, --channel [channel], --role <role>, --user [user]` or `--channel [search] [--role <search>|--user [search]]`",
	"perms.invalidNode": "Invalid permission node. Execute `perms nodes` for a list of valid nodes.",
	"perms.roleRequired": "Role option requires a role to be specified.",
	"perms.showGuild": "Showing permissions for the server",
	"perms.showChannel": "Showing permissions for the channel `{{name}}`",
	"perms.showChannelUser": "Showing permissions in channel `{{cname}}` for user `{{uname}}`",
	"perms.showChannelRole": "Showing permissions in channel `{{cname}}` for role `{{rname}}`",
	"perms.showRole": "Showing permissions for role `{{name}}`",
	"perms.showUser": "Showing permissions for user `{{name}}`",
	"perms.allowGuild": "Granted `{{node}}` for the entire server",
	"perms.denyGuild": "Revoked `{{node}}` for the entire server",
	"perms.defaultGuild": "Defaulted `{{node}}` for the entire server",
	"perms.allowChannel": "Granted `{{node}}` for channel `{{name}}`",
	"perms.denyChannel": "Revoked `{{node}}` for channel `{{name}}`",
	"perms.defaultChannel": "Defaulted `{{node}}` for channel `{{name}}`",
	"perms.allowChannelUser": "Granted `{{node}}` in channel `{{cname}}` for user `{{uname}}`",
	"perms.denyChannelUser": "Revoked `{{node}}` in channel `{{cname}}` for user `{{uname}}`",
	"perms.defaultChannelUser": "Defaulted `{{node}}` in channel `{{cname}}` for user `{{uname}}`",
	"perms.allowChannelRole": "Granted `{{node}}` in Channel `{{cname}}` for role `{{rname}}`",
	"perms.denyChannelRole": "Revoked `{{node}}` in channel `{{cname}}` for role `{{rname}}`",
	"perms.defaultChannelRole": "Defaulted `{{node}}` in channel `{{cname}}` for role `{{rname}}`",
	"perms.allowRole": "Granted `{{node}}` for role `{{name}}`",
	"perms.denyRole": "Revoked `{{node}}` for role `{{name}}`",
	"perms.defaultRole": "Defaulted `{{node}}` for role `{{name}}`",
	"perms.allowUser": "Granted `{{node}}` for user `{{name}}`",
	"perms.denyUser": "Revoked `{{node}}` for user `{{name}}`",
	"perms.defaultUser": "Defaulted `{{node}}` for user `{{name}}`",
	"perms.legend": ":heavy_check_mark: => Allowed by default :heavy_multiplication_x: => Denied by default :white_check_mark: => Allowed :no_entry: => Denied",
	"perms.permNode": "Permission node",
	"perms.addon": "More detailed help can be found at {{url}}",
	"pick.inputTooLarge": "The input of the option I wanted to pick is too large.",
	"pick.picked": "I picked: {{option}}",
	"prefix.text": "Prefix on this server is `{{prefix}}`.",
	"pro.upgraded": "Ayana PRO has been enabled for this server.\nPlease invite her here: {{invite}}",
	"pro.downgraded": "This server no longer has Ayana PRO.",
	"pro.processingError": "Something went wrong while trying to contact the subscription service.",
	"pro.noSubscriptions": "You don't have any PRO subscriptions. You can get Ayana PRO by supporting Ayana on Patreon.",
	"pro.alreadyUpgraded": "Ayana PRO is already enabled for this server.\nTo finish setup, add Ayana PRO here: {{invite}}",
	"pro.cannotUpgradeMore": "You cannot upgrade this server to Ayana PRO because you have already used all of your server upgrades.",
	"pro.notUpgraded": "This server has not been upgraded to Ayana PRO.",
	"pro.upgradePromo": "You need Ayana PRO to use this feature.",
	"pro.noPatreon": "You need to support Ayana on Patreon to update your donation text.",
	"pro.pledgeTooLow": "Your Patreon pledge is too low to update your donation text.",
	"pro.donatorTextNotSet": "You don't have a donator text set that can be updated.",
	"pro.guildNotPro": "Please upgrade this server to Ayana PRO to access this feature. For more information run the `pro` command.",
	"pro.instanceNotPro": "This feature is only available on the Ayana PRO instance. Please add her to your server by running `pro upgrade` and following the instructions.",
	"pro.noPublicUpgrades": "This server does not allow public Ayana PRO upgrades. See `settings guild publicupgrades`.",
	"pro.cannotDowngrade": "Only an administrator or the user that upgraded this server to Ayana PRO may downgrade it.",
	"pro.description": "Ayana PRO is an private hosted instance of Ayana exclusive to Patreon supporters.\nHigher quality playback, less downtime and more stability are just a few of the benefits you get.\n\nTo learn more or to get on board go to {{uri}}.\nAlternatively you can add public Ayana here {{invite}}.",
	"pro.noData": "You don't have any Ayana PRO subscriptions. For more information run the `pro` command.",
	"pro.disabled": "Ayana PRO is disabled in this Ayana instance.",
	"pro.redeemingKey": "Redeeming your key... Please wait.",
	"pro.enterKey": "Please enter the key you want to redeem.",
	"pro.invalidKey": "The key you entered is not valid.",
	"pro.keyAlreadyUsed": "The key you tried to redeem has already been used by someone else.",
	"pro.keyNotFound": "The key you entered could not be found. You have {{triesLeft}} redeem tries left for today.",
	"pro.noTries": "You have no more redeem tries for today. Please wait until tomorrow.",
	"pro.keyReloadError": "Your key has been redeemed but something went wrong during the reload. It may take a little longer until you receive your subscription.",
	"pro.redeemError": "Something went wrong while trying to redeem your key.",
	"pro.redeemSuccess": "Success! Your key has been redeemed. You can check your subscriptions with the `pro status` command and upgrade your server with the `pro upgrade` command.",
	"pro.guildCheck": "This server has been upgraded by `{{by}}` on the following date: `{{on}}` ({{ago}} ago).",
	"pro.manualSubscriptionRunningOut": "Your Ayana PRO subscription (ID: {{id}}) is running out in less than 72 hours ({{expires}}).\nAfter expiring, any servers using this subscription will be automatically downgraded.\nYou can check your subscriptions, upgrade count and upgraded servers with the `pro status` command.\n\nTo keep Ayana PRO and help support Ayana, please consider getting a subscription: {{url}}",
	"pro.pledgeDeclinedNotify": "Your Patreon subscription for this month is currently declined.\nPlease check Patreon and verify your payment method is still valid.\nIf you were charged for the pledge and are receiving this message, please let us know in Ayana Support Patreons channel\n\nIf your pledge is still declined on the 5th, the subscription will be invalidated and Ayana PRO will automatically leave.",
	"prune.missingPerms": "Sorry, I lack the `Manage Messages` Discord permission.",
	"prune.invalidAmount": "The amount you entered is invalid.",
	"prune.userHelp": "User option requires an input to search for.",
	"prune.tooManyOptions": "You used more than one of the following options, which is invalid `--all, --user, --bots`",
	"prune.deleteQuestion": "All messages matching your request will get deleted FOREVER. Do you want to continue? (y/n)",
	"prune.fetchFail": "Failed to fetch messages. Please try again.",
	"prune.filterHelp": "Filter requires an input to search for.",
	"prune.results": "Prune results",
	"prune.totalMsgsDeleted": "Total messages deleted",
	"prune.oldMsgsDeleted": "Old messages deleted",
	"prune.oldMsgsNotDeleted": "Old messages not deleted",
	"prune.deletedByUser": "Deleted messages by user",
	"prune.alreadyPruning": "Someone already ran the prune command in this channel! Please wait until it's done.",
	"prune.autodelInfo": "Autodelete is enabled. This message will be deleted after 10 seconds. Type 'c' to cancel the deletion.",
	"prune.autodelCancelled": "The automatic deletion has been aborted.",
	"prune.untilMessageNotFound": "The message that was used in the `--until` option could not be found in this channel.",
	"prune.statusFetching": "Fetching {{amount}} message(s)... This may take a while.",
	"prune.statusDeleting": "Deleting {{amount}} message(s)... This may take a while.",
	"prune.statusRemovingReactions": "Removing reactions from {{amount}} message(s)... This may take a while.",
	"prune.doneProcessing": "Done! Showing prune results below.",
	"prune.totalMsgsScanned": "Total messages scanned",
	"prune.totalMsgsReactionsRemoved": "Total messages reactions were removed from",
	"prune.removedByUser": "Messages with removed reactions by user",
	"random.upperBound": "Upper bound",
	"random.lowerBound": "Lower bound",
	"random.noNumber": "At least one of the given arguments is not a number.",
	"random.numberTooLarge": "At least one of the given numbers is too large. The max number possible is {{max}}.",
	"random.lowerBoundTooLarge": "Lower bound cannot be bigger than upper bound.",
	"random.result": "Your random number is {{number}}.",
	"role.noRoleSpecified": "You didn't specify a role that should be given or taken.",
	"role.tooManyOptions": "You used more than one of the following options, which is invalid `--all, --user <user>, --users, --bots`.",
	"role.specifyUser": "You need to specify a user when using `--user <user>`.",
	"role.cannotUseInroleNotinrole": "You cannot combine `--inrole`, `--notinrole` and `--noroles`.",
	"role.specifyAdditionalRole": "You need to specify an additional role when using `--inrole` or `--notinrole`.",
	"role.noOptionsSpecified": "You didn't specify any options. Please check the help for this command for more information.",
	"role.mainRoleHeader": "Please pick the role that should be given or taken (Your search: `{{search}}`)",
	"role.secondaryRoleHeader": "Please pick the role specified in `--inrole` or `--notinrole` (Your search: `{{search}}`)",
	"role.pleaseWait": "Please wait while I process your request. Type `{{prefix}}role cancel` to cancel the process. (Users processed: {{usersProcessed}})",
	"role.maximumReached": "Your request exceeded the maximum of 100 user role changes.",
	"role.alreadyProcessing": "I am already processing a role request in this server.",
	"role.doneProcessing": "Done! Modified roles of {{amount}} users.",
	"role.userHeader": "Please pick the user you meant with `{{search}}`",
	"role.statusMessageDeleted": "The status message has been deleted. The process has been aborted.",
	"role.invalidHexCode": "You didn't use a valid hex code. Examples for valid hex codes are #F4C and #F77800.",
	"role.modified": "The role `{{role}}` has been modified.",
	"role.notProcessing": "No role request is processing right now.",
	"role.cancelled": "The role request has been cancelled.",
	"role.moveAfterOptError": "Please specify a role to move after.",
	"sar.groupNotFound": "The group `{{group}}` could not be found.",
	"sar.groupInactive": "The group `{{group}}` is inactive.",
	"sar.reqRoleNotOwned": "You need to own the role `{{role}}` to use this group.",
	"sar.groupNoRoles": "The group `{{group}}` has no roles to assign.",
	"sar.assign": "Assign: {{role}}",
	"sar.unassign": "Unassign: {{role}}",
	"sar.pick": "Pick the role you want to assign or unassign from yourself",
	"sar.assigned": "The role `{{role}}` has been assigned to you.",
	"sar.unassigned": "The role `{{role}}` has been unassigned from you.",
	"sar.noActiveGroups": "No active groups :(",
	"sar.noGroups": "No groups :(",
	"sar.action.active": "Should users be able to assign roles from this group or not?",
	"sar.action.max": "The max amount of roles from this group that can be assigned. Set this to 0 for unlimited roles.",
	"sar.action.roles": "The roles for this group that can be assigned or unassigned.",
	"sar.action.reqrole": "The role a user must have to use this group. Use `everyone` as role to remove the required role.",
	"sar.rolesAlreadyAdded": "The roles `{{role}}` have already been added.",
	"sar.rolesNotInGroup": "The roles `{{role}}` were not in the group.",
	"sar.roleAlreadyAdded": "The role `{{role}}` has already been added.",
	"sar.roleNotInGroup": "The role `{{role}}` was not in the group.",
	"sar.rolesHelp": "Use `{{prefix}}sar <group> roles <add|remove> <role>` to add or remove roles to or from a group.",
	"sar.groupAlreadyCreated": "The group `{{group}}` has already been created.",
	"sar.groupCreated": "The group `{{group}}` has been created.",
	"sar.groupDeleted": "The group `{{group}}` has been deleted.",
	"sar.groupRenamed": "The group `{{group}}` has been renamed to `{{newGroup}}`.",
	"sar.cannotCreateMoreGroups": "You cannot create more than {{amnt}} groups.",
	"sar.cannotAddMoreRoles": "You cannot add more than {{amnt}} roles to a group.",
	"sar.checkHelp": "The command you entered is invalid. Check the help under `{{prefix}}sar help`.",
	"sar.changed": "Changed `{{action}}` in group `{{group}}` to `{{value}}`.",
	"sar.noDefaultGroup": "No default group has been defined. Check the help under `{{prefix}}sar help`.",
	"sar.cannotUseReserved": "You cannot use this reserved keyword as group name.",
	"sar.setDefault": "Set default group to `{{group}}`.",
	"sar.reqRole": "Role required",
	"sar.maxRoles": "Max roles assignable",
	"sar.noLimit": "No limit",
	"sar.createHelp": "Use `{{prefix}}sar create <group>` to create a group.",
	"sar.assignmentInterface": "To use the SAR assignment interface use `{{prefix}}rank [group]`.",
	"sar.pickGroup": "Pick a group you want to assign or unassign roles from.",
	"words.amount": "Amount",
	"words.key": "Key",
	"words.guildID": "Server ID",
	"words.note": "Note",
	"words.options": "Options",
	"words.option": "Option",
	"words.message": "Message",
	"words.messageID": "Message ID",
	"words.examples": "Examples",
	"words.search": "Search",
	"words.filter": "Filter",
	"words.boolean": "Boolean",
	"words.number": "Number",
	"words.usage": "Usage",
	"words.text": "Text",
	"words.command": "Command",
	"words.category": "Category",
	"words.user": "User",
	"words.role": "Role",
	"words.roles": "Roles",
	"words.channel": "Channel",
	"words.channels": "Channels",
	"words.group": "Group",
	"words.groups": "Groups",
	"words.guild": "Server",
	"words.guilds": "Servers",
	"words.version": "Version",
	"words.website": "Website",
	"words.author": "Author",
	"words.active": "Active",
	"words.library": "Library",
	"words.developers": "Developers",
	"words.donate": "Donate",
	"words.member": "Member",
	"words.members": "Members",
	"words.id": "ID",
	"words.region": "Region",
	"words.owner": "Owner",
	"words.created": "Created",
	"words.joined": "Joined",
	"words.icon": "Icon",
	"words.avatar": "Avatar",
	"words.cancel": "Cancel",
	"words.nickname": "Nickname",
	"words.playing": "Playing",
	"words.status": "Status",
	"words.streams": "Streams",
	"words.error": "Error",
	"words.yes": "Yes",
	"words.no": "No",
	"words.position": "Position",
	"words.color": "Color",
	"words.hoist": "Hoist",
	"words.managed": "Managed",
	"words.mentionable": "Mentionable",
	"words.permissions": "Permissions",
	"words.users": "Users",
	"words.topic": "Topic",
	"words.twitter": "Twitter",
	"words.mention": "Mention",
	"words.type": "Type",
	"words.value": "Value",
	"words.default": "Default",
	"words.description": "Description",
	"words.variables": "Variables",
	"words.providers": "Providers",
	"words.container": "Container",
	"words.gatewayVersion": "Ayana Gateway",
	"words.shard": "Shard",
	"words.donators": "Donators",
	"words.directlink": "Direct Link",
	"words.contributors": "Contributors",
	"words.arguments": "Arguments",
	"words.delete": "Delete",
	"words.uptime": "Uptime",
	"words.alias": "Alias",
	"words.aliases": "Aliases",
	"words.name": "Name",
	"words.reason": "Reason",
	"words.page": "Page",
	"words.locale": "Locale",
	"words.word": "Word",
	"words.queue": "Queue",
	"words.voiceChannel": "Voice Channel",
	"words.textChannel": "Text Channel",
	"words.playlist": "Playlist",
	"words.song": "Song",
	"actionlog.newChannel": "New channel",
	"actionlog.oldChannel": "Old channel",
	"rolemembers.header": "Members of role {{role}}",
	"ban.missingUser": "Missing required user parameter.",
	"ban.softHackban": "Cannot soft and hackban at the same time.",
	"ban.invalidDays": "Days option was specified and an invalid integer was provided.",
	"ban.hackbanUserID": "Hackban requires a userID.",
	"ban.failed": "Sorry, I was unable to ban the user. Maybe I lack the permission to?",
	"ban.softFailed": "Softban failure; user banned but failed to unban. Please manually unban this user.",
	"ban.days": "Days",
	"modlog.requireReason": "Modlog enabled: `--reason` must be included.",
	"botlist.fetchFailed": "Failed to fetch botlist from {{provider}}.",
	"support.text": "For support, suggestions, or bugs with Ayana, please join the support server. {{support}}",
	"kick.failed": "Sorry, I was unable to kick the user. Maybe I lack the permission to?",
	"linkcheck.headerRedirects": "[Redirects]",
	"linkcheck.error": "Failed to check link.",
	"linkcheck.pleaseWait": "Please wait while I check this spoopy link for you.",
	"ping.pong": "Pong! {{ms}}",
	"settings.failedUpdate": "Failed to update setting.",
	"settings.invalidInput": "Expected setting to be `{{type}}`. Got `{{input}}`.",
	"settings.set": "Set **{{setting}}** to `{{value}}`.",
	"settings.notset": "not set",
	"settings.userHelp": "These are your user settings.\nFor more information run `settings user [setting]`",
	"settings.groupsHelp": "This is a list of available setting groups.\nFor user settings run `settings user`.\nFor more information run `settings [groupName]`.",
	"settings.unknownGroup": "Unknown settings group [**{{input}}**]().",
	"settings.groupHelp": "Settings in [**{{group}}**]().\nFor more information about a setting, and to see associated variables, type `settings {{group}} [settingName]`.",
	"settings.unknownSetting": "Unknown setting [**{{setting}}**]() in group [**{{group}}**]().",
	"settings.active": "Enable/Disable",
	"settings.prefix.guild": "Prefix for current server.",
	"settings.greeting.text": "Greeting Text.",
	"settings.greeting.channel": "Channel to greet in.",
	"settings.greeting.dm": "Send as DM instead of channel?",
	"settings.farewell.text": "Farewell Text.",
	"settings.farewell.channel": "Channel to send farewell in.",
	"settings.farewell.dm": "Send as DM instead of channel?",
	"settings.modlog.channel": "Channel to log in.",
	"settings.automod.channel": "Automod logs channel.",
	"settings.automod.log": "Enable/Disable Automod logs.",
	"settings.automod.links": "Enable/Disable link filter.",
	"settings.automod.linksbl": "Links blacklist.",
	"settings.list.help": "Usage: `settings {{group}} {{setting}} [add|del] [item]`",
	"settings.list.delconfirm": "The following items will be removed. Is this okay [y/n]:\n```{{items}}```",
	"settings.list.delnomatch": "Found no items to remove.",
	"settings.variable.mention": "Mention User.",
	"settings.variable.username": "Member Username.",
	"settings.variable.discriminator": "Member Discriminator.",
	"settings.variable.userid": "Member UserID.",
	"settings.autodel.prune": "Delete all output generated after 10 seconds?",
	"settings.autorole.role": "The role that should be assigned with autorole",
	"settings.actionlog.channel": "Channel to log actions in.",
	"settings.guild.dmerrors": "Enable/Disable dmerrors server wide.",
	"settings.guild.dmbans": "Enable/Disable dmbans and dmkicks server wide.",
	"settings.guild.dmhelp": "Enable/Disable help sent via dm.",
	"settings.guild.afk": "Enable/Disable AFK messages server wide.",
	"settings.user.dmerrors": "Enable/Disable dmerrors.",
	"settings.failedUpdateAutorole": "This role cannot be used for autorole because it's higher than your highest role.",
	"settings.guild.publicupgrades": "Allows anyone in the server to upgrade Ayana to Ayana PRO. Only administrators or the user that upgraded can downgrade.",
	"avatar.resolveFailed": "Failed to get avatar.",
	"translation.nativeName": "US English",
	"translation.englishName": "US English",
	"channelinfo.pinned": "Pinned Messages",
	"channelinfo.type": "Channel Type",
	"channelinfo.text": "Text",
	"channelinfo.voice": "Voice",
	"channelinfo.bitrate": "Voice Bitrate",
	"channelinfo.connected": "Connected Users",
	"channelinfo.overwrite": "Permission Overwrites",
	"info.moreInfo": "*Ayana Creator, To view more information about all shards use {{prefix}}shardinfo",
	"music2.join": ":white_check_mark: Joined and bound to :speaker: `{{voice}}` and :newspaper: `{{text}}`.",
	"music2.rebound": ":white_check_mark: Resuming music playback after backend disconnect.",
	"music2.userNoChannel": "You are currently not in a channel. Please join a voice channel.",
	"music2.leave": ":no_entry: Left and unbound channels. If you enjoyed using Ayana please consider helping us keep the lights on <https://ayana.io/donate>!",
	"music2.nowplaying": ":notes: Now playing: `{{title}}` requested by `{{requester}}`.",
	"music2.enqueued": "Enqueued: `{{title}}` to position **{{position}}**. Run `music play` to play the queue.",
	"music2.enqueuedPlaylist": "Enqueued: `{{items}}` songs from `{{title}}`. Run `music play` to play the queue.",
	"music2.alreadyBound": "Already connected and bound to channels.",
	"music2.notBound": "Not bound to any channels.",
	"music2.queuePurged": "Queue purged.",
	"music2.queueItemDeleted": "Deleted `{{item}}` from the queue.",
	"music2.headerSearch": "[Search Results]",
	"music2.pickOption": "Pick an option below to enqueue it.",
	"music2.emptyQueue": "Nothing but us chickens here…",
	"music2.headerQueue": "[Music Queue]",
	"music2.queueShuffled": ":twisted_rightwards_arrows: Shuffled Queue.",
	"music2.skipped": ":fast_forward: Skipped `{{item}}`.",
	"music2.skipEmpty": "Queue empty. Nothing to skip.",
	"music2.autoPaused": ":pause_button: Paused playback due to lack of listeners.",
	"music2.autoResumed": ":arrow_forward: Resumed playback.",
	"music2.autoLeave": ":no_entry_sign: Left channel due to inactivity. If you enjoyed using Ayana please consider helping us keep the lights on <https://ayana.io/donate>!",
	"music2.tooLong": "Due to changes in musicv3, there is a **temporary** block on songs longer than 3 hours.",
	"music2.showQueueMore": "and {{size}} more",
	"music2.playfailed": ":no_entry_sign: An error prevented song `{{title}}` from playing. Skipping...",
	"music2.delete.fuzzyNoMatches": "No items in the queue matched your query.",
	"music2.delete.fuzzyExcessMatches": "Your query matched too many items. Please either force deletion or be more specific.",
	"music2.delete.confirm": "The following items will be removed. Is this okay [y/n]:\n```{{items}}```",
	"music2.delete.items": "Deleted `{{items}}` items from the queue.",
	"music2.delete.queueEmpty": "Queue empty nothing to delete.",
	"music2.delete.invalidIndex": "You specified an invalid index. Please try again.",
	"music2.queue.maxsize": "You have reached the maximum allowed queue size of 1000 items.",
	"music2.provider.unknown": "Unknown provider. Please run `music pv` for a list of valid providers.",
	"music3.join": ":white_check_mark: Joined and bound to :speaker: `{{voice}}` and :newspaper: `{{text}}`.",
	"music3.leave": ":no_entry: Left and unbound channels.",
	"music3.alreadyConnecting": "I already have a pending connection open to this server. Please wait for it to complete before trying again.",
	"music3.noNodes": "There are currently no music nodes available in `{{region}}`. Please try another region.",
	"music3.nowplaying": "Now Playing: {{title}}",
	"music3.skip": ":fast_forward: Skipped [{{title}}]({{uri}}).",
	"music3.deletedMultiple": "Removed `{{count}}` item(s) from the queue.",
	"music3.enqueued.playFooter": "Run 'music play' to play the queue.",
	"music3.enqueued": "Enqueued: `{{title}}` to position **{{position}}**",
	"music3.enqueuedPlaylist": "Enqueued: `{{count}}` songs from `{{title}}`",
	"music3.queueUri": "[View on ayana.io]({{uri}})",
	"music3.repeat.one": ":repeat_one: Repeating single item",
	"music3.repeat.on": ":repeat: Repeating entire queue",
	"music3.repeat.off": ":no_entry: Repeating disabled",
	"music3.repeat.specifyMode": "Please specify action for repeat: <on|one|off>",
	"music3.skipEmpty": "Queue is empty. There is nothing to skip.",
	"music3.playEmpty": "Queue is empty, add some songs!",
	"music3.deleteEmpty": "Queue is empty, nothing to delete!",
	"music3.nothingPlaying": "Nothing is currently playing",
	"music3.alreadySkipping": "A skip request is already being processed. Please note you can clear the queue with `music purge`.",
	"music3.autoLeave": ":no_entry_sign: Left channel due to inactivity. Help support Ayana and get some awesome perks with Ayana PRO. {{uri}}",
	"music3.autoLeaveNoPromo": ":no_entry_sign: Left channel due to inactivity. Thanks for using Ayana!",
	"music3.invalidIndex": "You specified an invalid index. Please try again.",
	"music3.voiceOptError": "Please include a voice channel with `--voice` option.",
	"music3.textOptError": "Please include a text channel with `--text` option.",
	"music3.regionOptError": "Please include a valid region with `--region` option.",
	"music3.searchNoResults": "No results matching your query. Please try something else.",
	"shardinfo.fail": "Failed to fetch shard info from gateway.",
	"shardinfo.currentShard": "This Shard",
	"setgame.fail": "Failed to set game. {{error}}",
	"setgame.streambool": "Stream URL must be specified.",
	"setgame.done": "Game status set!",
	"music.providers.youtube": "Listen to https://www.youtube.com videos and non-private playlists.",
	"music.providers.soundcloud": "Listen to https://www.soundcloud.com songs and playlists.",
	"music.providers.listenmoe": "Listen to the radio stream from https://listen.moe.",
	"music.providers.clyp": "Listen to http://clyp.it songs.",
	"music.providers.twitch": "Listen to livestreams from https://twitch.tv.",
	"music.songNameYt": "Song name (YT)",
	"providers.twitch.channelNotStreaming": "Channel `{{chnl}}` is currently not streaming.",
	"f.paid": "**{{username}}** has paid their respects.",
	"f.paidfor": "**{{username}}** has paid their respects for **{{type}}**.",
	"f.paidfooter": "{{today}} Today, {{all}} All",
	"f.paidstats": "**{{today}}** respects have been paid today. **{{all}}** all time.",
	"reminder.reminderString": "Reminder string (see examples)",
	"reminder.parseFailed": "Failed to find a time to remind you.",
	"reminder.invalidDuration": "Please specify a time greater than 2 minutes.",
	"reminder.gatewayFailure": "Failed to contact gateway. Please try again later.",
	"reminder.list.none": "You don't have any reminders right now.",
	"reminder.delete.confirm": "The following items will be removed. Is this okay [y/n]:\n```{{items}}```",
	"reminder.created": "Okay I will be sure to remind you!",
	"reminder.delete.nomatches": "No items in your reminders matched your query.",
	"reminder.delete.done": "Reminder(s) deleted.",
	"reminder.dm": "You asked me to remind you about this.\n{{reminder}}",
	"events.processingError": "Something went wrong while trying to contact the event service.",
	"donators.none": "Unable to find any donators.",
	"question.timeout": "Question timed out.",
	"question.cancelled": "Question cancelled.",
	"weebsh.noType": "That type could not be found on weeb.sh.",
	"weebsh.fail": "Failed to get the `{{type}}` image from weeb.sh :< You should try again.",
	"weebsh.noTypes": "The weeb.sh types have not loaded yet. Please wait a little bit."
}