{
    "general.guildOnly": "Meow meowow meow mew.",
    "general.error": "Meow meow meoeoew! Nyah, meow mreow meow mew (`support` murr mreow meow).\n```{{error}}```",
    "general.cooldown": "Mow! Mreow myaou mew. Murr mreow nya mreow.",
    "finder.failUser": "Meow meow nyehmruu.",
    "finder.failRole": "Meowow meow nyehmruu.",
    "finder.failChannel": "Meowo nya nyehmruu.",
    "finder.failGuild": "Meow mew nyehmruu.",
    "finder.headerRole": "[Meowo Nyeh]",
    "finder.headerUser": "[Meow Meow]",
    "finder.headerGuild": "[Meow Mew]",
    "finder.headerChannel": "[Murr Mreow]",
    "finder.headerUserGuild": "[Meow Mew - Meow Meow]",
    "invite.text": "Murrroww! :ok_hand:\n\nNya, mreow meow mew mreowowow nyehh~ meow!:\n\nMorr (mowoew): {{invite}}\nMurr (ra moweow): {{invitemin}}\n\n*purr*",
    "locale.userUpdate": "Mrraa! Mreoww mra nyeehh~ mreow `{{locale}}` ^ω^.",
    "locale.guildUpdate": "Mrraa! Meow mew mreoww mra nyeehh~ mreow `{{locale}}` ^ω^.",
    "locale.headerAvail": "[Mreoww Mra]",
    "locale.fail": "Mow! Ra mreow mro mreoww mra.",
    "modlog.genFail": "Mow! Ra mreow mro murrara.",
    "modlog.addFail": "Mow! Ra mreow mro murrara mre.",
    "modlog.created": "Mrraa! Mreow mro murrara mre.",
    "modlog.updated": "Mrraa! Nyeehh~ mreow murrara mre.",
    "modlog.updateFail": "Mow! Ra nyeehh~ mreow murrara mre.",
    "modlog.hackAdd": "Mrr... `{{input}}` mera mur~ nyeh mrora-meow meow. Marara [y/n]?",
    "perms.denied": "Mow! Moworr nyehmruu muramura `{{node}}` mera.",
    "perms.cmdDenied": "Ra marara! Moworr mur~ nyeh nyeraa mo muramura nyeroo nyomro nyeehh~ mreow muramura.",
    "perms.resetall.owner": "Mow! Ra meow mew nyeraa, ra marara.",
    "perms.resetall.reset": "Muramura mon.",
    "perms.resetall.error": "Ra muramura mon.",
    "perms.failedUpdate": "Mon nyeehh~ mreow muramura. Meowmemeo nyerou mro~~ meoeoew marara.",
    "perms.noRole": "Nyehmruu meowo nyeh mera.",
    "perms.roleUserConflict": "Meow meow ro meowow meow ra mera mruuoa.",
    "perms.invalidOpt": "Mera~mirr `--channel [meowo nya], --user [meow meow], --role [meowo nyeh]`  mera murrr~ mreowu. Ra mreowu meowo nya / ra mreowu meow meow mur nyeh~  nyehra.",
    "prefix.text": "Meow mrea mirr `{{prefix}}`.",
    "prune.missingPerms": "Mowmow! Nyehmruu `Manage Message` muramura.",
    "prune.fetchFail": "Ra mureow~ mreh ~meow mruea.",
    "prune.filterHelp": "Mow! Nyehmruu mreowu.",
    "prune.userIDConf": "Mrr... `{{input}}` mera mur~ nyeh mrora-meow meow. Marara [y/n]?",
    "remind.error": "Mow! Nyehmruu mreowu.",
    "remind.invalidTime": "Mow! Ra murrr~ mreowu. Mrr, mreowu mroho morr 30 mroho~ra mera.",
    "remind.confirm": "Mrr, mree mowhara mira `{{time}}`. Marara [y/n]?",
    "remind.okay": "Mrraa! Mowarr mreow mro mowhora!",
    "remind.failed": "Mow... mowarr ra mreow mro mowhora :crying_cat_face:",
    "remind.pm": "Mrraa! Moworr mreow mro mowhora: ```{{text}}```",
    "words.user": "Meow meow",
    "words.role": "Meowo nyeh",
    "words.roles": "~Meowo nyeh",
    "words.channel": "Meowo nya",
    "words.channels": "~Meowo nya",
    "words.guild": "Meow mew",
    "words.guilds": "~Meow mew",
    "words.version": "Mraraurnyeh",
    "words.website": "Mrarauwnyoh",
    "words.author": "Nyeraa",
    "words.library": "Muraownyeh",
    "words.donate": "Mrraamrraa~",
    "words.member": "Meow mew~ meow meow",
    "words.members": "~Meow mew~ meow meow",
    "words.id": "mrora",
    "words.region": "Nyehara",
    "words.owner": "Nyeraa",
    "words.created": "Mreow mro",
    "words.joined": "Meowmemeo mreow mro",
    "words.icon": "Mrurnya",
    "words.avatar": "Mrurnya",
    "words.cancel": "Nyehr~ mre",
    "words.nickname": "Meow mreu",
    "words.playing": "Mreow wryy",
    "words.status": "Wreow",
    "words.error": "Meoeoew",
    "words.yes": "Wry",
    "words.no": "Ra~wry",
    "words.position": "Nyehara",
    "words.color": "Ruuu",
    "words.hoist": "Ruhya",
    "words.managed": "Yrenya",
    "words.mentionable": "Wronya~meowmemeo",
    "words.permissions": "~Muramura",
    "words.users": "~Meow meow",
    "words.topic": "Mreowa mera",
    "words.twitter": "Twitter",
    "words.mention": "Meowmemeo",
    "words.type": "Mray",
    "words.value": "Mroewa",
    "words.default": "Nyehru",
    "words.description": "Mreowa",
    "words.variables": "~Mreowu",
    "words.providers": "~Mureow",
    "help.ban": "Mreowu: `ban <meow meow> [--reason <nyehroa>] [--days <~mhroho~ri>] [--soft] [--hackban]`",
    "help.kick": "Mreowu: `kick <meow meow> [--reason <nyehroa>]`",
    "help.roleinfo": "Mreowu: roleinfo <meowow meow>",
    "help.locale": "Mreowu: locale [set <mreoww mra> [--meow mew]]",
    "ban.missingUser": "Mow! Nyehmruu mreowu 'meow meow'.",
    "ban.softHackban": "Mow! Ra mreow mro mrow~raur ro mraw~raur mruuoa.",
    "ban.invalidDays": "Mow! Mreowu mureow~ mreh, mreowu ra murrr~ mroho-ri.",
    "ban.hackbanUserID": "Mow! Mraw~raur mur~ nyah mrora meow meow.",
    "ban.failed": "Mow! Ra marara raur meow meow. Nyehmruu muramura?",
    "ban.softFailed": "Mow! Meow meow raur, ra marara ra raur! Mrr, ra raur meow meow.",
    "modlog.requireReason": "Murrara mreow mro. Mreowu `--reason` mur~ nyah.",
    "botlist.fetchFailed": "Mow! Ra mureow~ mreh meow mreew, mira {{provider}}.",
    "botlist.headerPage": "[Meow Mreew Muraown {{page}}/{{total}}]",
    "support.text": "Mira Ayana nyerou, nyeehh~ mreow nyerou meow mew. {{support}}",
    "kick.failed": "Mow! Ra marara rowr meow meow. Nyehmruu muramura?",
    "linkcheck.headerRedirects": "[Mureow]",
    "ping.pong": "Mrraa! {{ms}}",
    "settings.failedUpdate": "Mow! Ra nyeehh~ mreow morraru mre.",
    "settings.invalidInput": "Mow! Morraru mre mur~ nyah `{{type}}`! Mreowu `{{input}}`.",
    "settings.set": "Mrraa! **{{setting}}** nyeehh~ mreow `{{value}}`.",
    "settings.notset": "Mow? Mow",
    "settings.groupsHelp": "Mera ~mre morraru.\nMira morr mreowa, `settings [meow mreu]`.",
    "settings.unknownGroup": "Mow? Nyehmruu mre [**{{input}}**]().",
    "settings.groupHelp": "~Mre morraru [**{{group}}**]().\nMira morarru mre, ro mreowu, mreowu `settings {{mre}} [mre meow mreu]`.",
    "settings.unknownSetting": "Mow? Nyehmruu mre morraru [**{{setting}}**]() mra mre [**{{group}}**]().",
    "settings.active": "Wry/Ra~wry",
    "settings.prefix.guild": "Meow mrea mira nyehra meow mew.",
    "settings.greeting.text": "Mrrea maharu.",
    "settings.greeting.channel": "Mrrea murr mreow.",
    "settings.greeting.dm": "Murr mreow mirr meowmemeo?",
    "settings.farewell.text": "Ra~mrrea maharu.",
    "settings.farewell.channel": "Ra~mrrea murr mreow.",
    "settings.farewell.dm": "Murr mreow mirr meowmemeo?",
    "settings.modlog.channel": "Murrara murr mreow.",
    "settings.automod.channel": "Murrora rara murr mreow.",
    "settings.automod.log": "Wry/Ra~wry Murrora rara.",
    "settings.automod.links": "Wry/Ra~wry mureow rero.",
    "settings.automod.linksbl": "Mureow rero.",
    "settings.list.help": "Mreowu: `settings {{mre}} {{morraru mre}} [mreow mro|mon] [mre]`",
    "settings.list.delconfirm": "~Mre mera mon. Marara? [y/n]:\n```{{items}}```",
    "settings.list.delnomatch": "Nyehmruu ~mre.",
    "settings.variable.mention": "Meowmemeo meow meow.",
    "settings.variable.username": "Meow meow meow mreu.",
    "settings.variable.discriminator": "Meow meow mreau.",
    "settings.variable.userid": "Meow meow mrora.",
    "avatar.resolveFailed": "Mow! Nyehmruu meow meow mrurnya.",
    "translation.nativeName": "mroauura",
    "translation.englishName": "catlang",
    "channelinfo.pinned": "Ruhya Meow Mruea",
    "channelinfo.type": "Meowo Nya Mray",
    "channelinfo.text": "Maharu",
    "channelinfo.voice": "Mohora",
    "channelinfo.bitrate": "Mohora Mreowa",
    "channelinfo.connected": "Mohora Meow Meow",
    "channelinfo.overwrite": "Muramura Nyehra",
    "music2.join": ":white_check_mark: Nyehra meowmemeo mira :speaker: `{{voice}}` ro :newspaper: `{{text}}`.",
    "music2.rebound": ":white_check_mark: Meowmemeo mohora morurr mohora ra meowmemeo.",
    "music2.userNoChannel": "Ra meowmemeo mira mohora.",
    "music2.leave": ":no_entry: Ra meowmemeo mira mohora. Moworr mrraamrraa~, mrr? <https://ayana.io/donate>",
    "music2.nowplaying": ":notes: Nyehra mohorawr: `{{title}}` Nyehr~ mre mira `{{requester}}`.",
    "music2.enqueued": "Mreow mro  `{{title}}` mira nyehra **{{position}}**. Mreowu `music play` nyehr~ mro mohorawr ~mre.",
    "music2.enqueuedPlaylist": "Mreow mro: `{{items}}` mohorawr mira `{{title}}`. Mreowu `music play` nyomro mohora.",
    "music2.alreadyBound": "Mow! Nyehra meowmemeo.",
    "music2.notBound": "Mow! Nyehmruu meowmemeo meowo nya.",
    "music2.queuePurged": "~Mre mon.",
    "music2.queueItemDeleted": "Mon `{{item}}` ~mre.",
    "music2.headerSearch": "[Mohorawr ~Mre]",
    "music2.pickOption": "Mreowu moharawr nyomro marara.",
    "music2.emptyQueue": "Mrr... Mow?",
    "music2.headerQueue": "[Mohorawr ~Mre]",
    "music2.queueShuffled": ":twisted_rightwards_arrows: Mon~mon mohorawr ~mre.",
    "music2.skipped": ":fast_forward: Nyehr~ mre `{{item}}`.",
    "music2.loopOne": ":repeat_one: Mreow mro nyehra mre.",
    "music2.loopAll": ":repeat: Mreow mro nyehra ~mre.",
    "music2.loopOff": "Mreow mro mreow mro mon.",
    "music2.autoPaused": ":pause_button: Mow, ra nyehr~ mro mohora.",
    "music2.autoResumed": ":arrow_forward: Mrraa! Ra nyehr~ mro mohora.",
    "music2.autoLeave": ":no_entry_sign: Nyehr~ mro mohora. Moworr mrraamrraa~, mrr? <https://ayana.io/donate>",
    "music2.fullHelp": "```css\n[Mohora Mraraurnyeh 3]\n\nmusic q | queue - mreowa mohorawr ~mre\nmusic q | queue [mohorawr meow mreu (yt) | mureow] - nyeehh~ mreow mohorawr ~mre\n   music q | queue [mohorawr meow mreu (yt) | mureow] --next - nyeehh~ mreow mohorawr ~mre mira nyehra mre(s)\n\nmusic qp | queueplay [mohorawr meow mreu (yt) | mureow] - mreow mro mohorawr mira mohorawr ~mre, ro nyehr~ mro nyehra mohorawr\n\nmusic sq | showqueue - mreowa mohorawr ~mre\nmusic pg | purge - mon mohorawr ~mre\nmusic d | delete <mahura|mohorawr> - mon mre mira mohorawr ~mre\n\nmusic p | play - nyehr~ mro moharawr ~mre\nmusic s | skip - nyehr~ mre nyehra mohorawr\nmusic sf | shuffle - mon~mon mohorawr ~mre \nmusic r | repeat <all|one|off> - wry/ra~wry mreow mro\n\nmusic pv | providers - mroewa mureow\n\nmusic j | join - meowmemeo mohora \nmusic l | leave - nyehr~ mre mohora\n\n<> = mur~ nyah mreowu, []= ra mur~ nyah mreowu, | = mo, ra mur~ nyah <> [] mo | mira mreowu.\nMeowmemeo nyerou, mrr? (=support mira mureow)```",
    "music2.tooLong": "Mow! Mro~~ mohorawr morr 3 ~mroho~ro, ra marara.",
    "shardinfo.fail": "Mo! Nyehmruu meow mreew~ra.",
    "shardinfo.currentShard": "Meow Mree~ra",
    "setgame.fail": "Mow! Ra nyeehh~ mreow mreow wryy. {{error}}",
    "setgame.streambool": "Mow! Nyehmruu mooraa.",
    "setgame.done": "Mrraa! Meow wryy nyeehh~ mreow!",
    "music.providers.youtube": "Mohora https://www.youtube.com mohorawr ro mohorawr ~mre.",
    "music.providers.soundcloud": "Mohora https://www.soundcloud.com mohorawr ro mohorawr ~mre.",
    "music.providers.listenmoe": "Mohora mooraa https://listen.moe.",
    "music.providers.clyp": "Mohora http://clyp.it mohorawr.",
    "music.providers.twitch": "Mohora moora https://twitch.tv.",
    "f.paid": "**{{username}}** nyeehh~ mreow mowarr mrrrraa.",
    "f.paidfor": "**{{username}}** nyeehh~ mreow mowarr mrrrraa mira **{{type}}**.",
    "f.paidfooter": "{{today}} Mroho~ri mera, {{all}} Nyeraor",
    "f.paidstats": "**{{today}}** mrrrraa nyeehh~ mreow mroho~ri mera. **{{all}}** nyeraor.",
    "general.gatewayFailure": "Meow meow meoeoew! Nyehmruu meow mew.",
    "general.pagination": "Muraown {{page}}/{{pages}}",
    "general.pagination.invalidPage": "Nyehmruu Muraown.",
    "words.container": "Muraowny",
    "words.gatewayVersion": "Ayana Meow Mew",
    "words.donators": "Mrraamrraa~meow meow",
    "music2.showQueueMore": "ro {{size}} morurr",
    "music2.playfailed": ":no_entry_sign: Meow meow meoeoew! Mohorawr `{{title}}` ra~nyehr~ mro. Mowmow...",
    "music2.delete.fuzzyNoMatches": "Nyehmryy mre mira rero.",
    "music2.delete.fuzzyExcessMatches": "Mow! Nyeraor ~mre morr nyehroar. Mur~ nyah mur mmroora ra~mreow mro mo morr muraonyeh.",
    "music2.delete.confirm": "~Mre mreow ra~mro. Marara? [y/n]:\n```{{items}}```",
    "music2.delete.items": "Mreow ra~mro `{{items}}` ~mre.",
    "music2.delete.queueEmpty": "Nyehmruu ~mre.",
    "music2.delete.invalidIndex": "Ra~murrr~ mahura. Mororo.",
    "music2.queue.maxsize": "Mow! Nyeraor ~mre morr nyehroar 1000.",
    "music2.provider.unknown": "Ra~murrr~ mureow. Mrr, mureow~ mreh murrr~ mureow moro `music pv`.",
    "reminder.parseFailed": "Mow! Ra~murrr~ mroho.",
    "reminder.invalidDuration": "Mow! Mroho mur~ nyah morr 2 ~mrohro~ri.",
    "reminder.gatewayFailure": "Mow! Nyehmruu meow mew. Mororo mroho~rura.",
    "reminder.list.none": "Mrr? Moworr nyehmruu ~mowhora.",
    "reminder.list.invalidPage": "Ra~murrr~ Muraown.",
    "reminder.delete.confirm": "~Mre mreow ra~mro. Marara? [y/n]:\n```{{items}}```",
    "reminder.created": "Mrraa! Mowarr mowhora mroho~rura!",
    "reminder.delete.nomatches": "Nyehmruu ~mre mra ~mowhora moro rero.",
    "reminder.delete.done": "~Mowhora mreow ra~mro.",
    "reminder.fullhelp": "```\nreminder add <mowhora maharu> - mreow mro mowhora\nreminder del <search> - mreow ra~mro mowhora moro rero\nreminder list - mroewa ~mowhora\n\nMroewu:\n reminder add nyehr~ mro meeraa in 1 hour\n reminder add nyehr~ mro moeruaro in 20 min```",
    "donators.none": "Nyehmruu mrraamrraa~ meow meow."
}
